docs/source/electronics/comparator/docs/Ch2Ch3_feedback_1kOm.csv

Channel              :,CH1,CH2
Frequency            :,1.422kHz,500.0Hz
Period               :,0.703ms,2.000ms
PK-PK                :,6.080V,7.760V
Probe attenuation    :,10X,10X
Voltage per ADC value:,5.000000mV,5.000000mV
Time interval        :,0.40000uS,0.40000uS

index,CH1_Voltage(mV),CH2_Voltage(mV)
1,-2960.000000,1200.000000
2,-2960.000000,1200.000000
3,-2960.000000,1200.000000
4,-2960.000000,1200.000000
5,-2880.000000,1280.000000
6,-2880.000000,1280.000000
7,-2880.000000,1280.000000
8,-2880.000000,1280.000000
9,-2880.000000,1280.000000
10,-2880.000000,1280.000000
11,-2880.000000,1280.000000
12,-2880.000000,1280.000000
13,-2880.000000,1280.000000
14,-2880.000000,1280.000000
15,-2880.000000,1280.000000
16,-2880.000000,1280.000000
17,-2960.000000,1280.000000
18,-2880.000000,1280.000000
19,-2880.000000,1280.000000
20,-2880.000000,1280.000000
21,-2880.000000,1280.000000
22,-2880.000000,1280.000000
23,-2880.000000,1280.000000
24,-2880.000000,1280.000000
25,-2880.000000,1280.000000
26,-2880.000000,1280.000000
27,-2880.000000,1360.000000
28,-2880.000000,1280.000000
29,-2800.000000,1280.000000
30,-2800.000000,1280.000000
31,-2880.000000,1360.000000
32,-2800.000000,1280.000000
33,-2880.000000,1280.000000
34,-2880.000000,1360.000000
35,-2800.000000,1280.000000
36,-2800.000000,1280.000000
37,-2800.000000,1280.000000
38,-2800.000000,1280.000000
39,-2800.000000,1280.000000
40,-2800.000000,1280.000000
41,-2800.000000,1360.000000
42,-2800.000000,1280.000000
43,-2800.000000,1280.000000
44,-2800.000000,1280.000000
45,-2800.000000,1360.000000
46,-2800.000000,1360.000000
47,-2800.000000,1360.000000
48,-2720.000000,1360.000000
49,-2800.000000,1360.000000
50,-2800.000000,1360.000000
51,-2800.000000,1360.000000
52,-2800.000000,1280.000000
53,-2800.000000,1360.000000
54,-2800.000000,1360.000000
55,-2800.000000,1360.000000
56,-2800.000000,1360.000000
57,-2800.000000,1360.000000
58,-2800.000000,1360.000000
59,-2800.000000,1360.000000
60,-2800.000000,1360.000000
61,-2800.000000,1360.000000
62,-2720.000000,1360.000000
63,-2800.000000,1360.000000
64,-2800.000000,1360.000000
65,-2720.000000,1360.000000
66,-2720.000000,1360.000000
67,-2720.000000,1360.000000
68,-2720.000000,1360.000000
69,-2720.000000,1360.000000
70,-2720.000000,1360.000000
71,-2720.000000,1360.000000
72,-2720.000000,1360.000000
73,-2720.000000,1360.000000
74,-2720.000000,1360.000000
75,-2720.000000,1360.000000
76,-2720.000000,1360.000000
77,-2800.000000,1360.000000
78,-2800.000000,1360.000000
79,-2720.000000,1360.000000
80,-2720.000000,1360.000000
81,-2720.000000,1360.000000
82,-2720.000000,1360.000000
83,-2640.000000,1360.000000
84,-2640.000000,1360.000000
85,-2720.000000,1440.000000
86,-2640.000000,1360.000000
87,-2640.000000,1440.000000
88,-2640.000000,1360.000000
89,-2640.000000,1360.000000
90,-2640.000000,1360.000000
91,-2720.000000,1360.000000
92,-2640.000000,1360.000000
93,-2720.000000,1360.000000
94,-2640.000000,1360.000000
95,-2640.000000,1360.000000
96,-2640.000000,1360.000000
97,-2640.000000,1360.000000
98,-2640.000000,1440.000000
99,-2640.000000,1360.000000
100,-2640.000000,1440.000000
101,-2640.000000,1360.000000
102,-2640.000000,1360.000000
103,-2640.000000,1440.000000
104,-2560.000000,1440.000000
105,-2640.000000,1440.000000
106,-2560.000000,1440.000000
107,-2640.000000,1440.000000
108,-2640.000000,1440.000000
109,-2640.000000,1440.000000
110,-2560.000000,1440.000000
111,-2560.000000,1440.000000
112,-2640.000000,1440.000000
113,-2640.000000,1440.000000
114,-2640.000000,1440.000000
115,-2640.000000,1440.000000
116,-2560.000000,1440.000000
117,-2640.000000,1440.000000
118,-2640.000000,1440.000000
119,-2640.000000,1440.000000
120,-2640.000000,1440.000000
121,-2560.000000,1440.000000
122,-2560.000000,1440.000000
123,-2560.000000,1440.000000
124,-2560.000000,1440.000000
125,-2560.000000,1440.000000
126,-2560.000000,1440.000000
127,-2640.000000,1440.000000
128,-2560.000000,1440.000000
129,-2560.000000,1440.000000
130,-2560.000000,1440.000000
131,-2560.000000,1520.000000
132,-2560.000000,1440.000000
133,-2560.000000,1440.000000
134,-2560.000000,1440.000000
135,-2560.000000,1440.000000
136,-2560.000000,1440.000000
137,-2560.000000,1440.000000
138,-2560.000000,1440.000000
139,-2560.000000,1440.000000
140,-2560.000000,1440.000000
141,-2560.000000,1440.000000
142,-2480.000000,1440.000000
143,-2560.000000,1440.000000
144,-2480.000000,1520.000000
145,-2480.000000,1520.000000
146,-2560.000000,1440.000000
147,-2480.000000,1520.000000
148,-2480.000000,1520.000000
149,-2480.000000,1440.000000
150,-2480.000000,1520.000000
151,-2560.000000,1520.000000
152,-2560.000000,1520.000000
153,-2480.000000,1520.000000
154,-2480.000000,1440.000000
155,-2480.000000,1520.000000
156,-2560.000000,1440.000000
157,-2480.000000,1520.000000
158,-2480.000000,1520.000000
159,-2480.000000,1520.000000
160,-2480.000000,1520.000000
161,-2480.000000,1520.000000
162,-2400.000000,1520.000000
163,-2480.000000,1520.000000
164,-2480.000000,1520.000000
165,-2400.000000,1520.000000
166,-2400.000000,1520.000000
167,-2480.000000,1520.000000
168,-2400.000000,1520.000000
169,-2400.000000,1440.000000
170,-2480.000000,1520.000000
171,-2480.000000,1520.000000
172,-2480.000000,1520.000000
173,-2400.000000,1520.000000
174,-2400.000000,1520.000000
175,-2480.000000,1520.000000
176,-2480.000000,1520.000000
177,-2480.000000,1520.000000
178,-2480.000000,1520.000000
179,-2480.000000,1520.000000
180,-2400.000000,1520.000000
181,-2400.000000,1520.000000
182,-2400.000000,1520.000000
183,-2400.000000,1520.000000
184,-2400.000000,1520.000000
185,-2400.000000,1520.000000
186,-2400.000000,1600.000000
187,-2400.000000,1520.000000
188,-2400.000000,1600.000000
189,-2320.000000,1520.000000
190,-2400.000000,1520.000000
191,-2400.000000,1520.000000
192,-2400.000000,1520.000000
193,-2400.000000,1520.000000
194,-2400.000000,1520.000000
195,-2400.000000,1520.000000
196,-2400.000000,1520.000000
197,-2400.000000,1520.000000
198,-2400.000000,1520.000000
199,-2400.000000,1520.000000
200,-2320.000000,1520.000000
201,-2320.000000,1520.000000
202,-2320.000000,1600.000000
203,-2320.000000,1520.000000
204,-2320.000000,1520.000000
205,-2320.000000,1600.000000
206,-2320.000000,1520.000000
207,-2320.000000,1600.000000
208,-2320.000000,1600.000000
209,-2320.000000,1600.000000
210,-2320.000000,1600.000000
211,-2320.000000,1600.000000
212,-2320.000000,1600.000000
213,-2320.000000,1600.000000
214,-2320.000000,1600.000000
215,-2320.000000,1520.000000
216,-2320.000000,1520.000000
217,-2320.000000,1600.000000
218,-2320.000000,1600.000000
219,-2320.000000,1520.000000
220,-2320.000000,1520.000000
221,-2240.000000,1600.000000
222,-2240.000000,1600.000000
223,-2240.000000,1600.000000
224,-2240.000000,1600.000000
225,-2240.000000,1600.000000
226,-2240.000000,1600.000000
227,-2240.000000,1600.000000
228,-2240.000000,1600.000000
229,-2240.000000,1600.000000
230,-2320.000000,1600.000000
231,-2240.000000,1600.000000
232,-2240.000000,1600.000000
233,-2320.000000,1600.000000
234,-2240.000000,1600.000000
235,-2240.000000,1600.000000
236,-2240.000000,1600.000000
237,-2240.000000,1600.000000
238,-2240.000000,1600.000000
239,-2240.000000,1600.000000
240,-2240.000000,1680.000000
241,-2240.000000,1680.000000
242,-2240.000000,1680.000000
243,-2160.000000,1680.000000
244,-2240.000000,1600.000000
245,-2240.000000,1600.000000
246,-2240.000000,1600.000000
247,-2240.000000,1600.000000
248,-2240.000000,1600.000000
249,-2160.000000,1600.000000
250,-2240.000000,1600.000000
251,-2240.000000,1680.000000
252,-2240.000000,1600.000000
253,-2240.000000,1600.000000
254,-2160.000000,1680.000000
255,-2160.000000,1600.000000
256,-2240.000000,1600.000000
257,-2240.000000,1600.000000
258,-2240.000000,1600.000000
259,-2160.000000,1680.000000
260,-2160.000000,1680.000000
261,-2160.000000,1680.000000
262,-2160.000000,1680.000000
263,-2160.000000,1680.000000
264,-2160.000000,1680.000000
265,-2240.000000,1680.000000
266,-2160.000000,1680.000000
267,-2080.000000,1680.000000
268,-2160.000000,1680.000000
269,-2160.000000,1600.000000
270,-2160.000000,1680.000000
271,-2160.000000,1680.000000
272,-2160.000000,1600.000000
273,-2160.000000,1680.000000
274,-2160.000000,1680.000000
275,-2160.000000,1600.000000
276,-2160.000000,1680.000000
277,-2160.000000,1680.000000
278,-2080.000000,1680.000000
279,-2160.000000,1680.000000
280,-2080.000000,1680.000000
281,-2080.000000,1680.000000
282,-2080.000000,1680.000000
283,-2080.000000,1680.000000
284,-2080.000000,1680.000000
285,-2160.000000,1680.000000
286,-2080.000000,1680.000000
287,-2080.000000,1680.000000
288,-2080.000000,1680.000000
289,-2080.000000,1680.000000
290,-2080.000000,1680.000000
291,-2080.000000,1680.000000
292,-2080.000000,1680.000000
293,-2080.000000,1680.000000
294,-2080.000000,1680.000000
295,-2080.000000,1680.000000
296,-2080.000000,1680.000000
297,-2080.000000,1680.000000
298,-2000.000000,1680.000000
299,-2000.000000,1680.000000
300,-2080.000000,1680.000000
301,-2000.000000,1680.000000
302,-2000.000000,1680.000000
303,-2080.000000,1760.000000
304,-2000.000000,1760.000000
305,-2000.000000,1680.000000
306,-2080.000000,1680.000000
307,-2000.000000,1760.000000
308,-2000.000000,1680.000000
309,-2000.000000,1680.000000
310,-2080.000000,1760.000000
311,-2000.000000,1680.000000
312,-2000.000000,1680.000000
313,-2000.000000,1760.000000
314,-2000.000000,1680.000000
315,-2000.000000,1680.000000
316,-2080.000000,1680.000000
317,-2000.000000,1680.000000
318,-2000.000000,1760.000000
319,-2000.000000,1760.000000
320,-1920.000000,1760.000000
321,-2000.000000,1760.000000
322,-1920.000000,1760.000000
323,-2000.000000,1760.000000
324,-1920.000000,1760.000000
325,-2000.000000,1680.000000
326,-2000.000000,1760.000000
327,-2000.000000,1760.000000
328,-1920.000000,1760.000000
329,-1920.000000,1760.000000
330,-2000.000000,1760.000000
331,-2000.000000,1760.000000
332,-2000.000000,1760.000000
333,-1920.000000,1760.000000
334,-1920.000000,1760.000000
335,-2000.000000,1760.000000
336,-1920.000000,1760.000000
337,-1920.000000,1760.000000
338,-1840.000000,1760.000000
339,-1920.000000,1760.000000
340,-1920.000000,1760.000000
341,-1920.000000,1760.000000
342,-1920.000000,1760.000000
343,-1920.000000,1760.000000
344,-1920.000000,1760.000000
345,-1920.000000,1760.000000
346,-1920.000000,1760.000000
347,-1920.000000,1760.000000
348,-1920.000000,1760.000000
349,-1920.000000,1760.000000
350,-1920.000000,1760.000000
351,-1840.000000,1760.000000
352,-1920.000000,1760.000000
353,-1920.000000,1760.000000
354,-1920.000000,1760.000000
355,-1920.000000,1760.000000
356,-1840.000000,1760.000000
357,-1920.000000,1760.000000
358,-1840.000000,1760.000000
359,-1840.000000,1760.000000
360,-1840.000000,1760.000000
361,-1840.000000,1840.000000
362,-1840.000000,1840.000000
363,-1840.000000,1760.000000
364,-1840.000000,1760.000000
365,-1840.000000,1760.000000
366,-1840.000000,1760.000000
367,-1840.000000,1840.000000
368,-1840.000000,1840.000000
369,-1840.000000,1840.000000
370,-1840.000000,1840.000000
371,-1840.000000,1760.000000
372,-1840.000000,1840.000000
373,-1920.000000,1760.000000
374,-1840.000000,1840.000000
375,-1840.000000,1760.000000
376,-1760.000000,1760.000000
377,-1760.000000,1840.000000
378,-1760.000000,1840.000000
379,-1760.000000,1840.000000
380,-1840.000000,1840.000000
381,-1760.000000,1840.000000
382,-1760.000000,1840.000000
383,-1760.000000,1840.000000
384,-1760.000000,1840.000000
385,-1760.000000,1840.000000
386,-1760.000000,1840.000000
387,-1760.000000,1840.000000
388,-1760.000000,1840.000000
389,-1840.000000,1840.000000
390,-1760.000000,1840.000000
391,-1760.000000,1840.000000
392,-1760.000000,1840.000000
393,-1840.000000,1840.000000
394,-1760.000000,1760.000000
395,-1760.000000,1840.000000
396,-1760.000000,1840.000000
397,-1760.000000,1840.000000
398,-1760.000000,1920.000000
399,-1680.000000,1840.000000
400,-1760.000000,1840.000000
401,-1760.000000,1840.000000
402,-1680.000000,1840.000000
403,-1760.000000,1840.000000
404,-1760.000000,1840.000000
405,-1680.000000,1840.000000
406,-1760.000000,1920.000000
407,-1680.000000,1920.000000
408,-1680.000000,1920.000000
409,-1760.000000,1840.000000
410,-1680.000000,1840.000000
411,-1760.000000,1840.000000
412,-1760.000000,1840.000000
413,-1760.000000,1840.000000
414,-1680.000000,1840.000000
415,-1680.000000,1840.000000
416,-1680.000000,1920.000000
417,-1680.000000,1840.000000
418,-1680.000000,1920.000000
419,-1680.000000,1840.000000
420,-1680.000000,1920.000000
421,-1680.000000,1920.000000
422,-1680.000000,1920.000000
423,-1680.000000,1920.000000
424,-1680.000000,1840.000000
425,-1680.000000,1920.000000
426,-1680.000000,1840.000000
427,-1680.000000,1920.000000
428,-1680.000000,1920.000000
429,-1600.000000,1920.000000
430,-1680.000000,1920.000000
431,-1600.000000,1920.000000
432,-1600.000000,1920.000000
433,-1680.000000,1920.000000
434,-1600.000000,1920.000000
435,-1680.000000,1920.000000
436,-1680.000000,1920.000000
437,-1600.000000,1920.000000
438,-1600.000000,1920.000000
439,-1600.000000,1920.000000
440,-1600.000000,1920.000000
441,-1600.000000,1920.000000
442,-1600.000000,1920.000000
443,-1600.000000,1920.000000
444,-1600.000000,1920.000000
445,-1600.000000,1920.000000
446,-1680.000000,1920.000000
447,-1680.000000,1920.000000
448,-1600.000000,1920.000000
449,-1600.000000,1920.000000
450,-1600.000000,1920.000000
451,-1600.000000,1920.000000
452,-1600.000000,1920.000000
453,-1600.000000,1920.000000
454,-1600.000000,1920.000000
455,-1600.000000,1920.000000
456,-1520.000000,1920.000000
457,-1600.000000,1920.000000
458,-1520.000000,1920.000000
459,-1520.000000,1920.000000
460,-1600.000000,1920.000000
461,-1520.000000,1920.000000
462,-1600.000000,1920.000000
463,-1520.000000,1920.000000
464,-1600.000000,1920.000000
465,-1520.000000,1920.000000
466,-1600.000000,1920.000000
467,-1520.000000,1920.000000
468,-1520.000000,1920.000000
469,-1520.000000,1920.000000
470,-1520.000000,1920.000000
471,-1520.000000,1920.000000
472,-1600.000000,2000.000000
473,-1520.000000,1920.000000
474,-1520.000000,2000.000000
475,-1520.000000,2000.000000
476,-1520.000000,2000.000000
477,-1520.000000,1920.000000
478,-1440.000000,1920.000000
479,-1520.000000,2000.000000
480,-1520.000000,2000.000000
481,-1520.000000,2000.000000
482,-1440.000000,1920.000000
483,-1440.000000,2000.000000
484,-1440.000000,1920.000000
485,-1520.000000,1920.000000
486,-1520.000000,2000.000000
487,-1520.000000,2000.000000
488,-1440.000000,2000.000000
489,-1440.000000,2000.000000
490,-1520.000000,2000.000000
491,-1520.000000,2000.000000
492,-1440.000000,2000.000000
493,-1440.000000,1920.000000
494,-1440.000000,2000.000000
495,-1440.000000,2000.000000
496,-1440.000000,2000.000000
497,-1360.000000,2000.000000
498,-1440.000000,2000.000000
499,-1440.000000,2000.000000
500,-1440.000000,2000.000000
501,-1440.000000,2000.000000
502,-1440.000000,2000.000000
503,-1440.000000,2000.000000
504,-1440.000000,2000.000000
505,-1440.000000,2000.000000
506,-1440.000000,2000.000000
507,-1440.000000,2000.000000
508,-1440.000000,2000.000000
509,-1360.000000,2000.000000
510,-1360.000000,2000.000000
511,-1440.000000,2000.000000
512,-1440.000000,2000.000000
513,-1360.000000,2000.000000
514,-1360.000000,2000.000000
515,-1360.000000,2080.000000
516,-1360.000000,2000.000000
517,-1360.000000,2000.000000
518,-1360.000000,2000.000000
519,-1440.000000,2000.000000
520,-1360.000000,2000.000000
521,-1440.000000,2000.000000
522,-1440.000000,2000.000000
523,-1360.000000,2000.000000
524,-1360.000000,2000.000000
525,-1440.000000,2080.000000
526,-1360.000000,2000.000000
527,-1440.000000,2000.000000
528,-1360.000000,2000.000000
529,-1440.000000,2000.000000
530,-1440.000000,2000.000000
531,-1360.000000,2080.000000
532,-1360.000000,2080.000000
533,-1360.000000,2080.000000
534,-1360.000000,2080.000000
535,-1280.000000,2080.000000
536,-1360.000000,2080.000000
537,-1280.000000,2080.000000
538,-1360.000000,2080.000000
539,-1360.000000,2080.000000
540,-1360.000000,2080.000000
541,-1360.000000,2080.000000
542,-1360.000000,2000.000000
543,-1280.000000,2080.000000
544,-1360.000000,2000.000000
545,-1360.000000,2000.000000
546,-1280.000000,2000.000000
547,-1360.000000,2080.000000
548,-1360.000000,2080.000000
549,-1280.000000,2080.000000
550,-1360.000000,2080.000000
551,-1360.000000,2160.000000
552,-1280.000000,2080.000000
553,-1280.000000,2080.000000
554,-1280.000000,2080.000000
555,-1280.000000,2080.000000
556,-1280.000000,2080.000000
557,-1280.000000,2080.000000
558,-1280.000000,2080.000000
559,-1280.000000,2080.000000
560,-1280.000000,2080.000000
561,-1280.000000,2080.000000
562,-1280.000000,2080.000000
563,-1280.000000,2080.000000
564,-1280.000000,2080.000000
565,-1280.000000,2080.000000
566,-1280.000000,2080.000000
567,-1280.000000,2080.000000
568,-1280.000000,2080.000000
569,-1280.000000,2080.000000
570,-1280.000000,2080.000000
571,-1280.000000,2080.000000
572,-1200.000000,2080.000000
573,-1200.000000,2160.000000
574,-1200.000000,2080.000000
575,-1200.000000,2160.000000
576,-1200.000000,2160.000000
577,-1200.000000,2160.000000
578,-1200.000000,2160.000000
579,-1200.000000,2080.000000
580,-1280.000000,2080.000000
581,-1280.000000,2160.000000
582,-1200.000000,2080.000000
583,-1200.000000,2160.000000
584,-1200.000000,2080.000000
585,-1200.000000,2160.000000
586,-1200.000000,2160.000000
587,-1280.000000,2160.000000
588,-1200.000000,2080.000000
589,-1200.000000,2160.000000
590,-1200.000000,2080.000000
591,-1200.000000,2160.000000
592,-1120.000000,2160.000000
593,-1200.000000,2160.000000
594,-1120.000000,2160.000000
595,-1200.000000,2160.000000
596,-1200.000000,2160.000000
597,-1200.000000,2160.000000
598,-1120.000000,2240.000000
599,-1120.000000,2160.000000
600,-1120.000000,2160.000000
601,-1120.000000,2160.000000
602,-1200.000000,2160.000000
603,-1120.000000,2160.000000
604,-1200.000000,2160.000000
605,-1120.000000,2160.000000
606,-1120.000000,2160.000000
607,-1200.000000,2160.000000
608,-1120.000000,2160.000000
609,-1120.000000,2160.000000
610,-1120.000000,2240.000000
611,-1120.000000,2160.000000
612,-1120.000000,2160.000000
613,-1120.000000,2160.000000
614,-1120.000000,2160.000000
615,-1120.000000,2160.000000
616,-1120.000000,2240.000000
617,-1120.000000,2160.000000
618,-1040.000000,2160.000000
619,-1120.000000,2160.000000
620,-1120.000000,2160.000000
621,-1120.000000,2160.000000
622,-1120.000000,2160.000000
623,-1120.000000,2160.000000
624,-1120.000000,2160.000000
625,-1120.000000,2160.000000
626,-1120.000000,2160.000000
627,-1120.000000,2240.000000
628,-1120.000000,2160.000000
629,-1120.000000,2160.000000
630,-1040.000000,2160.000000
631,-1040.000000,2240.000000
632,-1040.000000,2240.000000
633,-1040.000000,2240.000000
634,-1040.000000,2240.000000
635,-1040.000000,2240.000000
636,-1040.000000,2240.000000
637,-1040.000000,2240.000000
638,-1040.000000,2240.000000
639,-1040.000000,2160.000000
640,-1040.000000,2240.000000
641,-1040.000000,2240.000000
642,-1040.000000,2240.000000
643,-1040.000000,2160.000000
644,-1040.000000,2240.000000
645,-1120.000000,2240.000000
646,-1040.000000,2160.000000
647,-1040.000000,2240.000000
648,-1120.000000,2240.000000
649,-1040.000000,2240.000000
650,-1040.000000,2240.000000
651,-1040.000000,2240.000000
652,-960.000000,2240.000000
653,-1040.000000,2240.000000
654,-1040.000000,2240.000000
655,-1040.000000,2240.000000
656,-1040.000000,2240.000000
657,-960.000000,2240.000000
658,-960.000000,2240.000000
659,-960.000000,2240.000000
660,-960.000000,2240.000000
661,-1040.000000,2240.000000
662,-1040.000000,2240.000000
663,-960.000000,2240.000000
664,-1040.000000,2240.000000
665,-960.000000,2240.000000
666,-1040.000000,2240.000000
667,-960.000000,2240.000000
668,-960.000000,2240.000000
669,-960.000000,2240.000000
670,-1040.000000,2240.000000
671,-960.000000,2240.000000
672,-960.000000,2320.000000
673,-880.000000,2320.000000
674,-880.000000,2240.000000
675,-960.000000,2240.000000
676,-880.000000,2240.000000
677,-960.000000,2320.000000
678,-960.000000,2240.000000
679,-960.000000,2320.000000
680,-960.000000,2320.000000
681,-960.000000,2240.000000
682,-960.000000,2240.000000
683,-960.000000,2320.000000
