docs/source/electronics/comparator/docs/Ch2Ch3_feedback_3kOm.csv

Channel              :,CH1,CH2
Frequency            :,500.0Hz,500.0Hz
Period               :,2.000ms,2.000ms
PK-PK                :,7.200V,8.160V
Probe attenuation    :,10X,10X
Voltage per ADC value:,5.000000mV,5.000000mV
Time interval        :,0.40000uS,0.40000uS

index,CH1_Voltage(mV),CH2_Voltage(mV)
1,880.000000,-3520.000000
2,880.000000,-3520.000000
3,880.000000,-3600.000000
4,800.000000,-3600.000000
5,800.000000,-3520.000000
6,880.000000,-3520.000000
7,880.000000,-3520.000000
8,960.000000,-3600.000000
9,960.000000,-3520.000000
10,880.000000,-3520.000000
11,960.000000,-3520.000000
12,960.000000,-3520.000000
13,880.000000,-3520.000000
14,880.000000,-3520.000000
15,960.000000,-3520.000000
16,880.000000,-3520.000000
17,880.000000,-3520.000000
18,880.000000,-3520.000000
19,880.000000,-3520.000000
20,880.000000,-3520.000000
21,880.000000,-3520.000000
22,880.000000,-3520.000000
23,880.000000,-3520.000000
24,960.000000,-3520.000000
25,880.000000,-3520.000000
26,960.000000,-3520.000000
27,880.000000,-3520.000000
28,880.000000,-3520.000000
29,960.000000,-3520.000000
30,960.000000,-3520.000000
31,960.000000,-3520.000000
32,1040.000000,-3520.000000
33,960.000000,-3520.000000
34,960.000000,-3520.000000
35,960.000000,-3520.000000
36,960.000000,-3520.000000
37,960.000000,-3600.000000
38,960.000000,-3520.000000
39,960.000000,-3520.000000
40,960.000000,-3520.000000
41,960.000000,-3600.000000
42,960.000000,-3520.000000
43,960.000000,-3520.000000
44,960.000000,-3520.000000
45,960.000000,-3600.000000
46,960.000000,-3520.000000
47,960.000000,-3600.000000
48,1040.000000,-3520.000000
49,1040.000000,-3520.000000
50,1040.000000,-3520.000000
51,1040.000000,-3520.000000
52,1040.000000,-3520.000000
53,1040.000000,-3520.000000
54,1040.000000,-3520.000000
55,1040.000000,-3520.000000
56,1040.000000,-3520.000000
57,960.000000,-3520.000000
58,1040.000000,-3520.000000
59,1040.000000,-3520.000000
60,1040.000000,-3520.000000
61,1040.000000,-3520.000000
62,1040.000000,-3520.000000
63,1040.000000,-3520.000000
64,1040.000000,-3520.000000
65,1040.000000,-3520.000000
66,1040.000000,-3520.000000
67,1040.000000,-3520.000000
68,1040.000000,-3520.000000
69,1120.000000,-3520.000000
70,1120.000000,-3600.000000
71,1040.000000,-3520.000000
72,1040.000000,-3520.000000
73,1040.000000,-3520.000000
74,1040.000000,-3520.000000
75,1120.000000,-3520.000000
76,1120.000000,-3520.000000
77,1040.000000,-3520.000000
78,1120.000000,-3520.000000
79,1040.000000,-3520.000000
80,1040.000000,-3520.000000
81,1120.000000,-3520.000000
82,1120.000000,-3520.000000
83,1120.000000,-3520.000000
84,1120.000000,-3600.000000
85,1120.000000,-3520.000000
86,1120.000000,-3520.000000
87,1120.000000,-3520.000000
88,1120.000000,-3520.000000
89,1120.000000,-3600.000000
90,1120.000000,-3520.000000
91,1120.000000,-3520.000000
92,1120.000000,-3600.000000
93,1120.000000,-3600.000000
94,1120.000000,-3600.000000
95,1120.000000,-3520.000000
96,1120.000000,-3520.000000
97,1120.000000,-3520.000000
98,1120.000000,-3520.000000
99,1120.000000,-3520.000000
100,1120.000000,-3520.000000
101,1120.000000,-3520.000000
102,1120.000000,-3600.000000
103,1120.000000,-3520.000000
104,1120.000000,-3520.000000
105,1200.000000,-3520.000000
106,1200.000000,-3520.000000
107,1200.000000,-3600.000000
108,1200.000000,-3600.000000
109,1200.000000,-3520.000000
110,1200.000000,-3520.000000
111,1200.000000,-3600.000000
112,1200.000000,-3520.000000
113,1200.000000,-3520.000000
114,1200.000000,-3600.000000
115,1200.000000,-3520.000000
116,1200.000000,-3600.000000
117,1200.000000,-3520.000000
118,1200.000000,-3600.000000
119,1120.000000,-3600.000000
120,1200.000000,-3520.000000
121,1200.000000,-3520.000000
122,1200.000000,-3600.000000
123,1200.000000,-3520.000000
124,1120.000000,-3520.000000
125,1200.000000,-3520.000000
126,1200.000000,-3520.000000
127,1280.000000,-3520.000000
128,1280.000000,-3600.000000
129,1200.000000,-3600.000000
130,1200.000000,-3520.000000
131,1280.000000,-3520.000000
132,1200.000000,-3520.000000
133,1200.000000,-3600.000000
134,1200.000000,-3520.000000
135,1280.000000,-3520.000000
136,1200.000000,-3600.000000
137,1280.000000,-3520.000000
138,1200.000000,-3520.000000
139,1280.000000,-3600.000000
140,1200.000000,-3520.000000
141,1200.000000,-3520.000000
142,1280.000000,-3520.000000
143,1280.000000,-3520.000000
144,1280.000000,-3600.000000
145,1280.000000,-3600.000000
146,1280.000000,-3520.000000
147,1280.000000,-3520.000000
148,1360.000000,-3520.000000
149,1280.000000,-3600.000000
150,1280.000000,-3600.000000
151,1280.000000,-3520.000000
152,1280.000000,-3600.000000
153,1280.000000,-3520.000000
154,1280.000000,-3600.000000
155,1280.000000,-3520.000000
156,1280.000000,-3520.000000
157,1280.000000,-3600.000000
158,1280.000000,-3520.000000
159,1280.000000,-3520.000000
160,1280.000000,-3520.000000
161,1360.000000,-3600.000000
162,1360.000000,-3520.000000
163,1280.000000,-3600.000000
164,1280.000000,-3520.000000
165,1360.000000,-3600.000000
166,1360.000000,-3520.000000
167,1360.000000,-3520.000000
168,1360.000000,-3520.000000
169,1360.000000,-3520.000000
170,1360.000000,-3600.000000
171,1360.000000,-3520.000000
172,1360.000000,-3520.000000
173,1360.000000,-3600.000000
174,1360.000000,-3600.000000
175,1360.000000,-3520.000000
176,1360.000000,-3600.000000
177,1360.000000,-3520.000000
178,1360.000000,-3600.000000
179,1360.000000,-3600.000000
180,1360.000000,-3520.000000
181,1360.000000,-3520.000000
182,1360.000000,-3520.000000
183,1360.000000,-3520.000000
184,1360.000000,-3520.000000
185,1360.000000,-3600.000000
186,1440.000000,-3600.000000
187,1440.000000,-3520.000000
188,1440.000000,-3520.000000
189,1440.000000,-3520.000000
190,1440.000000,-3520.000000
191,1440.000000,-3520.000000
192,1440.000000,-3600.000000
193,1360.000000,-3520.000000
194,1440.000000,-3520.000000
195,1360.000000,-3520.000000
196,1440.000000,-3600.000000
197,1360.000000,-3520.000000
198,1360.000000,-3600.000000
199,1360.000000,-3600.000000
200,1440.000000,-3520.000000
201,1440.000000,-3520.000000
202,1440.000000,-3600.000000
203,1440.000000,-3600.000000
204,1520.000000,-3600.000000
205,1520.000000,-3520.000000
206,1440.000000,-3600.000000
207,1440.000000,-3520.000000
208,1440.000000,-3520.000000
209,1440.000000,-3600.000000
210,1520.000000,-3600.000000
211,1520.000000,-3520.000000
212,1520.000000,-3600.000000
213,1440.000000,-3520.000000
214,1440.000000,-3520.000000
215,1520.000000,-3600.000000
216,1440.000000,-3600.000000
217,1440.000000,-3520.000000
218,1440.000000,-3520.000000
219,1440.000000,-3600.000000
220,1520.000000,-3520.000000
221,1520.000000,-3520.000000
222,1440.000000,-3520.000000
223,1520.000000,-3600.000000
224,1520.000000,-3600.000000
225,1520.000000,-3520.000000
226,1520.000000,-3600.000000
227,1520.000000,-3600.000000
228,1520.000000,-3600.000000
229,1520.000000,-3600.000000
230,1520.000000,-3520.000000
231,1520.000000,-3520.000000
232,1520.000000,-3520.000000
233,1520.000000,-3600.000000
234,1520.000000,-3520.000000
235,1520.000000,-3600.000000
236,1520.000000,-3600.000000
237,1520.000000,-3520.000000
238,1520.000000,-3600.000000
239,1600.000000,-3600.000000
240,1520.000000,-3600.000000
241,1520.000000,-3600.000000
242,1600.000000,-3520.000000
243,1600.000000,-3520.000000
244,1600.000000,-3520.000000
245,1600.000000,-3600.000000
246,1600.000000,-3520.000000
247,1600.000000,-3600.000000
248,1680.000000,-3520.000000
249,1600.000000,-3520.000000
250,1600.000000,-3520.000000
251,1520.000000,-3600.000000
252,1600.000000,-3520.000000
253,1600.000000,-3520.000000
254,1600.000000,-3520.000000
255,1600.000000,-3600.000000
256,1600.000000,-3520.000000
257,1600.000000,-3600.000000
258,1600.000000,-3600.000000
259,1600.000000,-3600.000000
260,1520.000000,-3600.000000
261,1600.000000,-3520.000000
262,1680.000000,-3600.000000
263,1680.000000,-3520.000000
264,1680.000000,-3520.000000
265,1600.000000,-3520.000000
266,1600.000000,-3520.000000
267,1680.000000,-3520.000000
268,1680.000000,-3520.000000
269,1680.000000,-3520.000000
270,1600.000000,-3520.000000
271,1680.000000,-3600.000000
272,1680.000000,-3600.000000
273,1600.000000,-3520.000000
274,1600.000000,-3520.000000
275,1600.000000,-3520.000000
276,1680.000000,-3600.000000
277,1680.000000,-3600.000000
278,1600.000000,-3600.000000
279,1600.000000,-3600.000000
280,1680.000000,-3600.000000
281,1600.000000,-3600.000000
282,1680.000000,-3600.000000
283,1760.000000,-3520.000000
284,1760.000000,-3600.000000
285,1680.000000,-3520.000000
286,1680.000000,-3600.000000
287,1760.000000,-3520.000000
288,1680.000000,-3520.000000
289,1680.000000,-3600.000000
290,1680.000000,-3600.000000
291,1760.000000,-3520.000000
292,1680.000000,-3520.000000
293,1680.000000,-3600.000000
294,1680.000000,-3520.000000
295,1680.000000,-3520.000000
296,1760.000000,-3600.000000
297,1680.000000,-3600.000000
298,1680.000000,-3520.000000
299,1760.000000,-3600.000000
300,1680.000000,-3600.000000
301,1760.000000,-3520.000000
302,1760.000000,-3600.000000
303,1760.000000,-3600.000000
304,1760.000000,-3520.000000
305,1760.000000,-3520.000000
306,1760.000000,-3520.000000
307,1760.000000,-3520.000000
308,1760.000000,-3520.000000
309,1760.000000,-3520.000000
310,1760.000000,-3520.000000
311,1760.000000,-3600.000000
312,1760.000000,-3600.000000
313,1760.000000,-3600.000000
314,1760.000000,-3600.000000
315,1760.000000,-3600.000000
316,1840.000000,-3520.000000
317,1760.000000,-3520.000000
318,1760.000000,-3600.000000
319,1760.000000,-3600.000000
320,1760.000000,-3600.000000
321,1760.000000,-3600.000000
322,1840.000000,-3600.000000
323,1760.000000,-3600.000000
324,1840.000000,-3600.000000
325,1840.000000,-3520.000000
326,1840.000000,-3600.000000
327,1840.000000,-3520.000000
328,1840.000000,-3600.000000
329,1840.000000,-3600.000000
330,1840.000000,-3520.000000
331,1840.000000,-3520.000000
332,1840.000000,-3600.000000
333,1840.000000,-3600.000000
334,1840.000000,-3600.000000
335,1840.000000,-3600.000000
336,1840.000000,-3520.000000
337,1760.000000,-3600.000000
338,1920.000000,-3600.000000
339,1840.000000,-3520.000000
340,1840.000000,-3600.000000
341,1920.000000,-3600.000000
342,1840.000000,-3520.000000
343,1920.000000,-3600.000000
344,1920.000000,-3600.000000
345,1920.000000,-3600.000000
346,1920.000000,-3600.000000
347,1920.000000,-3600.000000
348,1920.000000,-3600.000000
349,1840.000000,-3520.000000
350,1840.000000,-3600.000000
351,1840.000000,-3600.000000
352,1920.000000,-3520.000000
353,1840.000000,-3600.000000
354,1920.000000,-3600.000000
355,1840.000000,-3520.000000
356,1920.000000,-3600.000000
357,1920.000000,-3600.000000
358,1920.000000,-3520.000000
359,1920.000000,-3520.000000
360,1920.000000,-3520.000000
361,1920.000000,-3600.000000
362,1920.000000,-3600.000000
363,1920.000000,-3600.000000
364,1920.000000,-3520.000000
365,2000.000000,-3600.000000
366,1920.000000,-3600.000000
367,2000.000000,-3520.000000
368,1920.000000,-3520.000000
369,1920.000000,-3600.000000
370,1920.000000,-3520.000000
371,1920.000000,-3600.000000
372,2000.000000,-3600.000000
373,2000.000000,-3520.000000
374,1920.000000,-3600.000000
375,1920.000000,-3600.000000
376,2000.000000,-3520.000000
377,1920.000000,-3600.000000
378,2000.000000,-3600.000000
379,2000.000000,-3600.000000
380,2000.000000,-3600.000000
381,2000.000000,-3520.000000
382,2000.000000,-3600.000000
383,2000.000000,-3600.000000
384,2000.000000,-3520.000000
385,2000.000000,-3520.000000
386,2000.000000,-3520.000000
387,2080.000000,-3600.000000
388,2000.000000,-3520.000000
389,2000.000000,-3600.000000
390,2000.000000,-3520.000000
391,2000.000000,-3600.000000
392,2000.000000,-3600.000000
393,2080.000000,-3520.000000
394,2000.000000,-3600.000000
395,2000.000000,-3520.000000
396,2080.000000,-3520.000000
397,2000.000000,-3520.000000
398,2080.000000,-3520.000000
399,2080.000000,-3520.000000
400,2080.000000,-3600.000000
401,2080.000000,-3600.000000
402,2160.000000,-3520.000000
403,2080.000000,-3600.000000
404,2080.000000,-3600.000000
405,2000.000000,-3520.000000
406,2080.000000,-3520.000000
407,2080.000000,-3520.000000
408,2080.000000,-3600.000000
409,2080.000000,-3600.000000
410,2000.000000,-3520.000000
411,2080.000000,-3520.000000
412,2080.000000,-3600.000000
413,2080.000000,-3600.000000
414,2080.000000,-3520.000000
415,2080.000000,-3520.000000
416,2080.000000,-3520.000000
417,2080.000000,-3600.000000
418,2080.000000,-3520.000000
419,2080.000000,-3600.000000
420,2160.000000,-3520.000000
421,2160.000000,-3520.000000
422,2160.000000,-3600.000000
423,2160.000000,-3600.000000
424,2160.000000,-3520.000000
425,2080.000000,-3520.000000
426,2080.000000,-3600.000000
427,2160.000000,-3520.000000
428,2160.000000,-3600.000000
429,2080.000000,-3600.000000
430,2080.000000,-3600.000000
431,2160.000000,-3520.000000
432,2080.000000,-3520.000000
433,2160.000000,-3600.000000
434,2160.000000,-3600.000000
435,2160.000000,-3600.000000
436,2080.000000,-3600.000000
437,2160.000000,-3600.000000
438,2160.000000,-3600.000000
439,2160.000000,-3520.000000
440,2160.000000,-3600.000000
441,2160.000000,-3520.000000
442,2160.000000,-3520.000000
443,2160.000000,-3600.000000
444,2160.000000,-3600.000000
445,2160.000000,-3600.000000
446,2160.000000,-3520.000000
447,2240.000000,-3600.000000
448,2160.000000,-3600.000000
449,2160.000000,-3600.000000
450,2160.000000,-3520.000000
451,2160.000000,-3600.000000
452,2160.000000,-3600.000000
453,2160.000000,-3520.000000
454,2240.000000,-3600.000000
455,2160.000000,-3520.000000
456,2160.000000,-3520.000000
457,2240.000000,-3600.000000
458,2240.000000,-3520.000000
459,2240.000000,-3520.000000
460,2240.000000,-3520.000000
461,2240.000000,-3600.000000
462,2240.000000,-3520.000000
463,2240.000000,-3520.000000
464,2240.000000,-3520.000000
465,2240.000000,-3600.000000
466,2240.000000,-3600.000000
467,2240.000000,-3520.000000
468,2240.000000,-3600.000000
469,2240.000000,-3600.000000
470,2240.000000,-3520.000000
471,2240.000000,-3600.000000
472,2240.000000,-3600.000000
473,2240.000000,-3520.000000
474,2240.000000,-3600.000000
475,2160.000000,-3600.000000
476,2240.000000,-3520.000000
477,2240.000000,-3600.000000
478,2320.000000,-3600.000000
479,2320.000000,-3600.000000
480,2320.000000,-3600.000000
481,2320.000000,-3520.000000
482,2320.000000,-3520.000000
483,2320.000000,-3600.000000
484,2320.000000,-3520.000000
485,2320.000000,-3520.000000
486,2320.000000,-3520.000000
487,2320.000000,-3520.000000
488,2320.000000,-3600.000000
489,2320.000000,-3520.000000
490,2240.000000,-3600.000000
491,2320.000000,-3520.000000
492,2320.000000,-3600.000000
493,2320.000000,-3520.000000
494,2320.000000,-3600.000000
495,2320.000000,-3600.000000
496,2320.000000,-3600.000000
497,2320.000000,-3600.000000
498,2320.000000,-3600.000000
499,2400.000000,-3520.000000
500,2320.000000,-3600.000000
501,2400.000000,-3600.000000
502,2320.000000,-3600.000000
503,2320.000000,-3600.000000
504,2400.000000,-3600.000000
505,2400.000000,-3600.000000
506,2320.000000,-3600.000000
507,2400.000000,-3600.000000
508,2400.000000,-3600.000000
509,2320.000000,-3520.000000
510,2400.000000,-3600.000000
511,2400.000000,-3520.000000
512,2320.000000,-3600.000000
513,2400.000000,-3600.000000
514,2320.000000,-3520.000000
515,2400.000000,-3600.000000
516,2400.000000,-3600.000000
517,2400.000000,-3600.000000
518,2400.000000,-3600.000000
519,2400.000000,-3520.000000
520,2400.000000,-3520.000000
521,2400.000000,-3600.000000
522,2400.000000,-3600.000000
523,2400.000000,-3600.000000
524,2400.000000,-3600.000000
525,2480.000000,-3520.000000
526,2400.000000,-3600.000000
527,2400.000000,-3520.000000
528,2400.000000,-3600.000000
529,2400.000000,-3520.000000
530,2400.000000,-3600.000000
531,2400.000000,-3600.000000
532,2400.000000,-3520.000000
533,2400.000000,-3600.000000
534,2480.000000,-3600.000000
535,2480.000000,-3600.000000
536,2480.000000,-3600.000000
537,2480.000000,-3600.000000
538,2480.000000,-3600.000000
539,2480.000000,-3600.000000
540,2480.000000,-3600.000000
541,2480.000000,-3600.000000
542,2480.000000,-3600.000000
543,2480.000000,-3600.000000
544,2480.000000,-3600.000000
545,2480.000000,-3520.000000
546,2480.000000,-3600.000000
547,2480.000000,-3600.000000
548,2480.000000,-3600.000000
549,2480.000000,-3600.000000
550,2480.000000,-3600.000000
551,2480.000000,-3600.000000
552,2480.000000,-3600.000000
553,2480.000000,-3600.000000
554,2480.000000,-3600.000000
555,2560.000000,-3600.000000
556,2480.000000,-3520.000000
557,2560.000000,-3520.000000
558,2560.000000,-3520.000000
559,2560.000000,-3600.000000
560,2560.000000,-3600.000000
561,2560.000000,-3600.000000
562,2560.000000,-3600.000000
563,2560.000000,-3600.000000
564,2560.000000,-3520.000000
565,2560.000000,-3600.000000
566,2560.000000,-3520.000000
567,2560.000000,-3600.000000
568,2560.000000,-3600.000000
569,2560.000000,-3600.000000
570,2560.000000,-3600.000000
571,2560.000000,-3600.000000
572,2560.000000,-3600.000000
573,2560.000000,-3600.000000
574,2560.000000,-3600.000000
575,2560.000000,-3600.000000
576,2640.000000,-3600.000000
577,2560.000000,-3600.000000
578,2640.000000,-3600.000000
579,2560.000000,-3600.000000
580,2640.000000,-3520.000000
581,2560.000000,-3520.000000
582,2560.000000,-3600.000000
583,2560.000000,-3600.000000
584,2560.000000,-3600.000000
585,2640.000000,-3600.000000
586,2640.000000,-3520.000000
587,2560.000000,-3600.000000
588,2640.000000,-3520.000000
589,2560.000000,-3600.000000
590,2640.000000,-3520.000000
591,2560.000000,-3600.000000
592,2560.000000,-3600.000000
593,2640.000000,-3600.000000
594,2640.000000,-3600.000000
595,2640.000000,-3600.000000
596,2640.000000,-3600.000000
597,2640.000000,-3600.000000
598,2720.000000,-3600.000000
599,2640.000000,-3520.000000
600,2640.000000,-3600.000000
601,2640.000000,-3520.000000
602,2640.000000,-3520.000000
603,2640.000000,-3600.000000
604,2640.000000,-3600.000000
605,2640.000000,-3600.000000
606,2640.000000,-3600.000000
607,2640.000000,-3600.000000
608,2640.000000,-3520.000000
609,2720.000000,-3600.000000
610,2640.000000,-3600.000000
611,2640.000000,-3600.000000
612,2640.000000,-3600.000000
613,2720.000000,-3520.000000
614,2720.000000,-3600.000000
615,2720.000000,-3600.000000
616,2720.000000,-3600.000000
617,2720.000000,-3600.000000
618,2720.000000,-3600.000000
619,2720.000000,-3600.000000
620,2720.000000,-3520.000000
621,2720.000000,-3600.000000
622,2720.000000,-3520.000000
623,2720.000000,-3600.000000
624,2720.000000,-3600.000000
625,2720.000000,-3600.000000
626,2720.000000,-3600.000000
627,2720.000000,-3600.000000
628,2720.000000,-3600.000000
629,2720.000000,-3600.000000
630,2720.000000,-3600.000000
631,2720.000000,-3600.000000
632,2720.000000,-3600.000000
633,2720.000000,-3600.000000
634,2720.000000,-3600.000000
635,2800.000000,-3520.000000
636,2800.000000,-3520.000000
637,2800.000000,-3600.000000
638,2800.000000,-3520.000000
639,2800.000000,-3600.000000
640,2800.000000,-3600.000000
641,2720.000000,-3600.000000
642,2800.000000,-3600.000000
643,2800.000000,-3600.000000
644,2800.000000,-3600.000000
645,2800.000000,-3600.000000
646,2720.000000,-3600.000000
647,2800.000000,-3600.000000
648,2800.000000,-3520.000000
649,2800.000000,-3600.000000
650,2800.000000,-3600.000000
651,2720.000000,-3600.000000
652,2800.000000,-3600.000000
653,2800.000000,-3600.000000
654,2800.000000,-3600.000000
655,2800.000000,-3600.000000
656,2800.000000,-3600.000000
657,2880.000000,-3600.000000
658,2800.000000,-3600.000000
659,2800.000000,-3600.000000
660,2800.000000,-3520.000000
661,2800.000000,-3600.000000
662,2800.000000,-3600.000000
663,2880.000000,-3600.000000
664,2880.000000,-3600.000000
665,2880.000000,-3600.000000
666,2880.000000,-3600.000000
667,2800.000000,-3520.000000
668,2880.000000,-3600.000000
669,2800.000000,-3600.000000
670,2800.000000,-3600.000000
671,2880.000000,-3520.000000
672,2800.000000,-3600.000000
673,2880.000000,-3520.000000
674,2880.000000,-3520.000000
675,2880.000000,-3520.000000
676,2880.000000,-3600.000000
677,2880.000000,-3600.000000
678,2880.000000,-3600.000000
679,2880.000000,-3600.000000
680,2880.000000,-3600.000000
681,2880.000000,-3600.000000
682,2880.000000,-3520.000000
683,2880.000000,-3600.000000
684,2880.000000,-3600.000000
