docs/source/electronics/comparator/docs/Ch2Ch3_no_feedback.csv

Channel              :,CH1,CH2
Frequency            :,500.0Hz,500.0Hz
Period               :,2.000ms,2.000ms
PK-PK                :,7.040V,9.200V
Probe attenuation    :,10X,10X
Voltage per ADC value:,5.000000mV,5.000000mV
Time interval        :,1.00000uS,1.00000uS

index,CH1_Voltage(mV),CH2_Voltage(mV)
1,1680.000000,-3840.000000
2,1680.000000,-3840.000000
3,1680.000000,-3840.000000
4,1680.000000,-3840.000000
5,1680.000000,-3840.000000
6,1600.000000,-3840.000000
7,1520.000000,-3840.000000
8,1600.000000,-3840.000000
9,1600.000000,-3840.000000
10,1600.000000,-3840.000000
11,1600.000000,-3840.000000
12,1600.000000,-3840.000000
13,1600.000000,-3840.000000
14,1600.000000,-3840.000000
15,1600.000000,-3840.000000
16,1520.000000,-3840.000000
17,1520.000000,-3840.000000
18,1520.000000,-3840.000000
19,1520.000000,-3840.000000
20,1520.000000,-3840.000000
21,1520.000000,-3840.000000
22,1520.000000,-3840.000000
23,1520.000000,-3840.000000
24,1520.000000,-3840.000000
25,1440.000000,-3840.000000
26,1520.000000,-3840.000000
27,1440.000000,-3840.000000
28,1520.000000,-3840.000000
29,1440.000000,-3840.000000
30,1440.000000,-3840.000000
31,1520.000000,-3840.000000
32,1520.000000,-3840.000000
33,1440.000000,-3840.000000
34,1440.000000,-3840.000000
35,1440.000000,-3840.000000
36,1440.000000,-3840.000000
37,1440.000000,-3840.000000
38,1360.000000,-3840.000000
39,1440.000000,-3840.000000
40,1360.000000,-3840.000000
41,1440.000000,-3840.000000
42,1440.000000,-3840.000000
43,1360.000000,-3840.000000
44,1440.000000,-3840.000000
45,1360.000000,-3840.000000
46,1360.000000,-3840.000000
47,1360.000000,-3840.000000
48,1360.000000,-3840.000000
49,1360.000000,-3840.000000
50,1360.000000,-3840.000000
51,1360.000000,-3840.000000
52,1360.000000,-3840.000000
53,1280.000000,-3840.000000
54,1280.000000,-3840.000000
55,1280.000000,-3840.000000
56,1280.000000,-3840.000000
57,1280.000000,-3840.000000
58,1280.000000,-3840.000000
59,1280.000000,-3840.000000
60,1280.000000,-3840.000000
61,1280.000000,-3840.000000
62,1280.000000,-3840.000000
63,1280.000000,-3840.000000
64,1280.000000,-3840.000000
65,1200.000000,-3840.000000
66,1280.000000,-3840.000000
67,1200.000000,-3920.000000
68,1200.000000,-3840.000000
69,1200.000000,-3840.000000
70,1200.000000,-3840.000000
71,1200.000000,-3840.000000
72,1200.000000,-3840.000000
73,1200.000000,-3840.000000
74,1200.000000,-3840.000000
75,1200.000000,-3840.000000
76,1120.000000,-3840.000000
77,1200.000000,-3840.000000
78,1120.000000,-3840.000000
79,1200.000000,-3840.000000
80,1120.000000,-3840.000000
81,1120.000000,-3840.000000
82,1120.000000,-3840.000000
83,1120.000000,-3840.000000
84,1120.000000,-3840.000000
85,1120.000000,-3840.000000
86,1040.000000,-3840.000000
87,1120.000000,-3840.000000
88,1120.000000,-3840.000000
89,1120.000000,-3840.000000
90,1040.000000,-3840.000000
91,1040.000000,-3840.000000
92,1040.000000,-3840.000000
93,1040.000000,-3840.000000
94,960.000000,-3840.000000
95,1040.000000,-3840.000000
96,1040.000000,-3840.000000
97,1040.000000,-3840.000000
98,1040.000000,-3840.000000
99,1040.000000,-3840.000000
100,1040.000000,-3840.000000
101,1040.000000,-3840.000000
102,1040.000000,-3840.000000
103,1040.000000,-3840.000000
104,1040.000000,-3840.000000
105,1040.000000,-3840.000000
106,1040.000000,-3840.000000
107,1040.000000,-3840.000000
108,960.000000,-3840.000000
109,960.000000,-3840.000000
110,960.000000,-3840.000000
111,960.000000,-3840.000000
112,960.000000,-3840.000000
113,960.000000,-3840.000000
114,960.000000,-3840.000000
115,880.000000,-3840.000000
116,880.000000,-3840.000000
117,960.000000,-3840.000000
118,880.000000,-3840.000000
119,960.000000,-3920.000000
120,880.000000,-3840.000000
121,880.000000,-3840.000000
122,880.000000,-3840.000000
123,800.000000,-3840.000000
124,800.000000,-3840.000000
125,800.000000,-3840.000000
126,800.000000,-3840.000000
127,800.000000,-3840.000000
128,800.000000,-3840.000000
129,800.000000,-3840.000000
130,800.000000,-3840.000000
131,800.000000,-3840.000000
132,800.000000,-3840.000000
133,800.000000,-3840.000000
134,800.000000,-3840.000000
135,720.000000,-3840.000000
136,800.000000,-3840.000000
137,800.000000,-3840.000000
138,800.000000,-3840.000000
139,720.000000,-3840.000000
140,720.000000,-3840.000000
141,720.000000,-3840.000000
142,720.000000,-3840.000000
143,720.000000,-3840.000000
144,720.000000,-3840.000000
145,720.000000,-3840.000000
146,640.000000,-3840.000000
147,640.000000,-3840.000000
148,640.000000,-3840.000000
149,640.000000,-3840.000000
150,720.000000,-3840.000000
151,640.000000,-3840.000000
152,640.000000,-3840.000000
153,640.000000,-3840.000000
154,640.000000,-3840.000000
155,640.000000,-3840.000000
156,560.000000,5120.000000
157,560.000000,5200.000000
158,560.000000,5200.000000
159,640.000000,5200.000000
160,560.000000,5200.000000
161,640.000000,5120.000000
162,560.000000,5120.000000
163,560.000000,5200.000000
164,560.000000,5200.000000
165,560.000000,5200.000000
166,560.000000,5120.000000
167,560.000000,5120.000000
168,560.000000,5200.000000
169,560.000000,5120.000000
170,480.000000,5120.000000
171,480.000000,5120.000000
172,480.000000,5200.000000
173,480.000000,5200.000000
174,480.000000,5200.000000
175,480.000000,5200.000000
176,480.000000,5200.000000
177,480.000000,5120.000000
178,400.000000,5120.000000
179,480.000000,5120.000000
180,400.000000,5120.000000
181,480.000000,5120.000000
182,400.000000,5200.000000
183,480.000000,5200.000000
184,480.000000,5120.000000
185,400.000000,5200.000000
186,400.000000,5120.000000
187,400.000000,5120.000000
188,400.000000,5120.000000
189,320.000000,5200.000000
190,400.000000,5120.000000
191,400.000000,5200.000000
192,400.000000,5200.000000
193,320.000000,5120.000000
194,320.000000,5120.000000
195,400.000000,5120.000000
196,320.000000,5120.000000
197,320.000000,5200.000000
198,320.000000,5120.000000
199,400.000000,5120.000000
200,320.000000,5120.000000
201,320.000000,5200.000000
202,320.000000,5200.000000
203,320.000000,5200.000000
204,320.000000,5200.000000
205,240.000000,5200.000000
206,320.000000,5120.000000
207,240.000000,5200.000000
208,320.000000,5120.000000
209,240.000000,5120.000000
210,240.000000,5200.000000
211,240.000000,5120.000000
212,240.000000,5120.000000
213,240.000000,5120.000000
214,160.000000,5200.000000
215,240.000000,5200.000000
216,240.000000,5120.000000
217,160.000000,5200.000000
218,160.000000,5200.000000
219,240.000000,5120.000000
220,160.000000,5120.000000
221,160.000000,5200.000000
222,160.000000,5200.000000
223,160.000000,5120.000000
224,160.000000,5200.000000
225,160.000000,5120.000000
226,160.000000,5200.000000
227,160.000000,5200.000000
228,160.000000,5200.000000
229,160.000000,5200.000000
230,160.000000,5200.000000
231,160.000000,5200.000000
232,160.000000,5120.000000
233,80.000000,5200.000000
234,80.000000,5120.000000
235,80.000000,5200.000000
236,80.000000,5120.000000
237,0.000000,5200.000000
238,80.000000,5200.000000
239,80.000000,5200.000000
240,80.000000,5200.000000
241,0.000000,5120.000000
242,0.000000,5120.000000
243,0.000000,5200.000000
244,0.000000,5200.000000
245,0.000000,5200.000000
246,0.000000,5120.000000
247,0.000000,5200.000000
248,0.000000,5120.000000
249,-80.000000,5200.000000
250,-80.000000,5200.000000
251,-80.000000,5200.000000
252,-80.000000,5200.000000
253,-80.000000,5200.000000
254,-80.000000,5200.000000
255,0.000000,5200.000000
256,-80.000000,5200.000000
257,-80.000000,5120.000000
258,-80.000000,5200.000000
259,-80.000000,5120.000000
260,-80.000000,5200.000000
261,-160.000000,5200.000000
262,-80.000000,5200.000000
263,-160.000000,5200.000000
264,-160.000000,5200.000000
265,-160.000000,5200.000000
266,-160.000000,5200.000000
267,-160.000000,5200.000000
268,-160.000000,5120.000000
269,-160.000000,5200.000000
270,-160.000000,5200.000000
271,-160.000000,5200.000000
272,-160.000000,5200.000000
273,-240.000000,5200.000000
274,-160.000000,5200.000000
275,-240.000000,5200.000000
276,-240.000000,5200.000000
277,-240.000000,5200.000000
278,-240.000000,5120.000000
279,-240.000000,5200.000000
280,-240.000000,5200.000000
281,-240.000000,5200.000000
282,-240.000000,5200.000000
283,-240.000000,5200.000000
284,-240.000000,5200.000000
285,-240.000000,5120.000000
286,-240.000000,5200.000000
287,-320.000000,5200.000000
288,-240.000000,5200.000000
289,-320.000000,5200.000000
290,-240.000000,5200.000000
291,-320.000000,5200.000000
292,-320.000000,5200.000000
293,-320.000000,5200.000000
294,-240.000000,5200.000000
295,-400.000000,5200.000000
296,-320.000000,5200.000000
297,-320.000000,5200.000000
298,-400.000000,5200.000000
299,-320.000000,5200.000000
300,-320.000000,5200.000000
301,-320.000000,5200.000000
302,-400.000000,5200.000000
303,-400.000000,5200.000000
304,-400.000000,5200.000000
305,-400.000000,5200.000000
306,-400.000000,5200.000000
307,-400.000000,5200.000000
308,-400.000000,5200.000000
309,-400.000000,5200.000000
310,-400.000000,5120.000000
311,-480.000000,5200.000000
312,-480.000000,5200.000000
313,-480.000000,5200.000000
314,-480.000000,5200.000000
315,-400.000000,5200.000000
316,-400.000000,5200.000000
317,-400.000000,5200.000000
318,-480.000000,5200.000000
319,-480.000000,5200.000000
320,-560.000000,5200.000000
321,-560.000000,5200.000000
322,-480.000000,5200.000000
323,-560.000000,5200.000000
324,-480.000000,5200.000000
325,-480.000000,5200.000000
326,-560.000000,5200.000000
327,-560.000000,5200.000000
328,-560.000000,5200.000000
329,-560.000000,5200.000000
330,-560.000000,5200.000000
331,-560.000000,5200.000000
332,-560.000000,5200.000000
333,-560.000000,5200.000000
334,-640.000000,5200.000000
335,-640.000000,5200.000000
336,-640.000000,5200.000000
337,-640.000000,5200.000000
338,-640.000000,5200.000000
339,-640.000000,5200.000000
340,-640.000000,5200.000000
341,-640.000000,5120.000000
342,-640.000000,5200.000000
343,-640.000000,5200.000000
344,-640.000000,5200.000000
345,-720.000000,5200.000000
346,-720.000000,5200.000000
347,-720.000000,5200.000000
348,-720.000000,5200.000000
349,-720.000000,5200.000000
350,-640.000000,5200.000000
351,-640.000000,5200.000000
352,-640.000000,5200.000000
353,-720.000000,5200.000000
354,-720.000000,5200.000000
355,-640.000000,5200.000000
356,-640.000000,5200.000000
357,-720.000000,5200.000000
358,-800.000000,5200.000000
359,-800.000000,5200.000000
360,-800.000000,5280.000000
361,-800.000000,5200.000000
362,-800.000000,5200.000000
363,-800.000000,5200.000000
364,-800.000000,5200.000000
365,-800.000000,5200.000000
366,-800.000000,5200.000000
367,-880.000000,5200.000000
368,-880.000000,5280.000000
369,-880.000000,5120.000000
370,-880.000000,5200.000000
371,-880.000000,5200.000000
372,-880.000000,5200.000000
373,-880.000000,5200.000000
374,-880.000000,5200.000000
375,-880.000000,5200.000000
376,-960.000000,5200.000000
377,-880.000000,5200.000000
378,-880.000000,5120.000000
379,-960.000000,5200.000000
380,-880.000000,5200.000000
381,-960.000000,5200.000000
382,-960.000000,5200.000000
383,-960.000000,5200.000000
384,-960.000000,5200.000000
385,-960.000000,5200.000000
386,-960.000000,5200.000000
387,-960.000000,5200.000000
388,-880.000000,5200.000000
389,-960.000000,5200.000000
390,-960.000000,5200.000000
391,-1040.000000,5200.000000
392,-1040.000000,5200.000000
393,-960.000000,5200.000000
394,-1040.000000,5280.000000
395,-1040.000000,5200.000000
396,-1040.000000,5200.000000
397,-1040.000000,5200.000000
398,-1120.000000,5040.000000
399,-1040.000000,5200.000000
400,-1040.000000,5200.000000
401,-1040.000000,5120.000000
402,-1040.000000,5200.000000
403,-1120.000000,5200.000000
404,-1040.000000,5120.000000
405,-1120.000000,5200.000000
406,-1120.000000,5200.000000
407,-1120.000000,5200.000000
408,-1120.000000,5200.000000
409,-1120.000000,5200.000000
410,-1120.000000,5200.000000
411,-1120.000000,5120.000000
412,-1120.000000,5200.000000
413,-1200.000000,5200.000000
414,-1120.000000,5200.000000
415,-1120.000000,5200.000000
416,-1120.000000,5200.000000
417,-1200.000000,5200.000000
418,-1200.000000,5200.000000
419,-1200.000000,5200.000000
420,-1200.000000,5200.000000
421,-1200.000000,5200.000000
422,-1200.000000,5200.000000
423,-1200.000000,5200.000000
424,-1200.000000,5200.000000
425,-1200.000000,5200.000000
426,-1200.000000,5200.000000
427,-1280.000000,5200.000000
428,-1280.000000,5120.000000
429,-1200.000000,5200.000000
430,-1280.000000,5200.000000
431,-1280.000000,5200.000000
432,-1280.000000,5120.000000
433,-1280.000000,5200.000000
434,-1280.000000,5200.000000
435,-1280.000000,5200.000000
436,-1360.000000,5200.000000
437,-1280.000000,5200.000000
438,-1360.000000,5200.000000
439,-1280.000000,5200.000000
440,-1360.000000,5200.000000
441,-1360.000000,5200.000000
442,-1360.000000,5200.000000
443,-1360.000000,5200.000000
444,-1440.000000,5200.000000
445,-1440.000000,5120.000000
446,-1360.000000,5200.000000
447,-1360.000000,5200.000000
448,-1440.000000,5200.000000
449,-1360.000000,5200.000000
450,-1360.000000,5200.000000
451,-1440.000000,5200.000000
452,-1440.000000,5200.000000
453,-1440.000000,5200.000000
454,-1440.000000,5200.000000
455,-1440.000000,5200.000000
456,-1440.000000,5200.000000
457,-1440.000000,5200.000000
458,-1520.000000,5200.000000
459,-1520.000000,5200.000000
460,-1520.000000,5200.000000
461,-1520.000000,5200.000000
462,-1440.000000,5120.000000
463,-1520.000000,5200.000000
464,-1520.000000,5200.000000
465,-1520.000000,5200.000000
466,-1440.000000,5200.000000
467,-1520.000000,5200.000000
468,-1520.000000,5200.000000
469,-1520.000000,5200.000000
470,-1520.000000,5200.000000
471,-1520.000000,5200.000000
472,-1520.000000,5200.000000
473,-1600.000000,5200.000000
474,-1520.000000,5200.000000
475,-1520.000000,5120.000000
476,-1520.000000,5200.000000
477,-1600.000000,5200.000000
478,-1520.000000,5200.000000
479,-1600.000000,5200.000000
480,-1520.000000,5200.000000
481,-1520.000000,5200.000000
482,-1600.000000,5200.000000
483,-1680.000000,5200.000000
484,-1680.000000,5200.000000
485,-1680.000000,5200.000000
486,-1680.000000,5200.000000
487,-1680.000000,5200.000000
488,-1600.000000,5200.000000
489,-1680.000000,5200.000000
490,-1680.000000,5200.000000
491,-1760.000000,5200.000000
492,-1680.000000,5200.000000
493,-1760.000000,5200.000000
494,-1680.000000,5200.000000
495,-1680.000000,5200.000000
496,-1680.000000,5200.000000
497,-1680.000000,5200.000000
498,-1760.000000,5200.000000
499,-1760.000000,5200.000000
500,-1760.000000,5200.000000
501,-1760.000000,5200.000000
502,-1760.000000,5200.000000
503,-1760.000000,5200.000000
504,-1760.000000,5200.000000
505,-1760.000000,5200.000000
506,-1760.000000,5200.000000
507,-1840.000000,5200.000000
508,-1760.000000,5200.000000
509,-1760.000000,5200.000000
510,-1840.000000,5200.000000
511,-1760.000000,5200.000000
512,-1760.000000,5200.000000
513,-1840.000000,5200.000000
514,-1840.000000,5200.000000
515,-1840.000000,5200.000000
516,-1840.000000,5200.000000
517,-1840.000000,5200.000000
518,-1840.000000,5200.000000
519,-1840.000000,5200.000000
520,-1840.000000,5200.000000
521,-1840.000000,5200.000000
522,-1920.000000,5200.000000
523,-1920.000000,5200.000000
524,-1920.000000,5200.000000
525,-1920.000000,5200.000000
526,-1920.000000,5200.000000
527,-1920.000000,5200.000000
528,-1920.000000,5200.000000
529,-1920.000000,5200.000000
530,-2000.000000,5200.000000
531,-1920.000000,5200.000000
532,-1920.000000,5200.000000
533,-2000.000000,5200.000000
534,-2000.000000,5200.000000
535,-1920.000000,5200.000000
536,-2000.000000,5200.000000
537,-2000.000000,5200.000000
538,-2080.000000,5200.000000
539,-2000.000000,5200.000000
540,-2000.000000,5200.000000
541,-2080.000000,5200.000000
542,-2000.000000,5200.000000
543,-2000.000000,5200.000000
544,-2000.000000,5200.000000
545,-2080.000000,5200.000000
546,-2080.000000,5200.000000
547,-2080.000000,5200.000000
548,-2080.000000,5200.000000
549,-2080.000000,5200.000000
550,-2080.000000,5200.000000
551,-2080.000000,5200.000000
552,-2080.000000,5200.000000
553,-2160.000000,5200.000000
554,-2160.000000,5200.000000
555,-2080.000000,5200.000000
556,-2160.000000,5200.000000
557,-2160.000000,5200.000000
558,-2160.000000,5200.000000
559,-2160.000000,5200.000000
560,-2160.000000,5200.000000
561,-2160.000000,5200.000000
562,-2160.000000,5200.000000
563,-2240.000000,5200.000000
564,-2160.000000,5280.000000
565,-2240.000000,5200.000000
566,-2160.000000,5200.000000
567,-2240.000000,5200.000000
568,-2240.000000,5200.000000
569,-2240.000000,5200.000000
570,-2240.000000,5200.000000
571,-2240.000000,5200.000000
572,-2240.000000,5200.000000
573,-2240.000000,5200.000000
574,-2240.000000,5200.000000
575,-2240.000000,5200.000000
576,-2240.000000,5200.000000
577,-2320.000000,5200.000000
578,-2320.000000,5200.000000
579,-2320.000000,5200.000000
580,-2320.000000,5200.000000
581,-2320.000000,5200.000000
582,-2320.000000,5200.000000
583,-2320.000000,5200.000000
584,-2320.000000,5200.000000
585,-2320.000000,5200.000000
586,-2320.000000,5200.000000
587,-2400.000000,5200.000000
588,-2320.000000,5200.000000
589,-2400.000000,5200.000000
590,-2400.000000,5200.000000
591,-2400.000000,5200.000000
592,-2480.000000,5200.000000
593,-2400.000000,5200.000000
594,-2400.000000,5200.000000
595,-2400.000000,5200.000000
596,-2480.000000,5200.000000
597,-2400.000000,5200.000000
598,-2400.000000,5200.000000
599,-2400.000000,5200.000000
600,-2400.000000,5200.000000
601,-2400.000000,5200.000000
602,-2400.000000,5200.000000
603,-2400.000000,5200.000000
604,-2400.000000,5200.000000
605,-2400.000000,5200.000000
606,-2400.000000,5200.000000
607,-2480.000000,5200.000000
608,-2560.000000,5200.000000
609,-2560.000000,5200.000000
610,-2560.000000,5200.000000
611,-2480.000000,5200.000000
612,-2560.000000,5200.000000
613,-2560.000000,5200.000000
614,-2480.000000,5200.000000
615,-2560.000000,5200.000000
616,-2560.000000,5200.000000
617,-2640.000000,5200.000000
618,-2560.000000,5200.000000
619,-2560.000000,5200.000000
620,-2560.000000,5200.000000
621,-2640.000000,5200.000000
622,-2640.000000,5200.000000
623,-2640.000000,5200.000000
624,-2640.000000,5200.000000
625,-2640.000000,5200.000000
626,-2640.000000,5200.000000
627,-2640.000000,5200.000000
628,-2640.000000,5200.000000
629,-2640.000000,5200.000000
630,-2640.000000,5200.000000
631,-2720.000000,5200.000000
632,-2720.000000,5200.000000
633,-2720.000000,5200.000000
634,-2720.000000,5200.000000
635,-2720.000000,5200.000000
636,-2640.000000,5200.000000
637,-2720.000000,5200.000000
638,-2720.000000,5200.000000
639,-2720.000000,5200.000000
640,-2720.000000,5200.000000
641,-2720.000000,5200.000000
642,-2800.000000,5200.000000
643,-2720.000000,5200.000000
644,-2720.000000,5200.000000
645,-2720.000000,5200.000000
646,-2800.000000,5200.000000
647,-2800.000000,5200.000000
648,-2800.000000,5200.000000
649,-2800.000000,5200.000000
650,-2800.000000,5200.000000
651,-2800.000000,5200.000000
652,-2800.000000,5200.000000
653,-2800.000000,5200.000000
654,-2800.000000,5200.000000
655,-2800.000000,5200.000000
656,-2880.000000,5200.000000
657,-2880.000000,5200.000000
658,-2880.000000,5200.000000
659,-2880.000000,5200.000000
660,-2800.000000,5200.000000
661,-2880.000000,5200.000000
662,-2880.000000,5200.000000
663,-2880.000000,5200.000000
664,-2960.000000,5200.000000
665,-2960.000000,5200.000000
666,-2960.000000,5200.000000
667,-2880.000000,5200.000000
668,-2880.000000,5200.000000
669,-2880.000000,5200.000000
670,-2960.000000,5200.000000
671,-2960.000000,5200.000000
672,-2960.000000,5200.000000
673,-2960.000000,5200.000000
674,-2960.000000,5200.000000
675,-2960.000000,5200.000000
676,-2960.000000,5200.000000
677,-2960.000000,5200.000000
678,-2960.000000,5200.000000
679,-3040.000000,5200.000000
680,-3040.000000,5200.000000
681,-3040.000000,5200.000000
682,-3040.000000,5200.000000
683,-2960.000000,5200.000000
684,-3040.000000,5200.000000
685,-3040.000000,5200.000000
686,-3040.000000,5200.000000
687,-3120.000000,5200.000000
688,-3040.000000,5200.000000
689,-3040.000000,5200.000000
690,-3120.000000,5200.000000
691,-3040.000000,5200.000000
692,-3040.000000,5200.000000
693,-3120.000000,5200.000000
694,-3200.000000,5200.000000
695,-3120.000000,5200.000000
696,-3200.000000,5200.000000
697,-3120.000000,5200.000000
