docs/source/electronics/comparator/docs/Ch2Ch3_feedback_3kOm_switch.csv

Channel              :,CH1,CH2
Frequency            :,4.225MHz,4.231MHz
Period               :,236.7ns,236.3ns
PK-PK                :,1.200V,8.080V
Probe attenuation    :,10X,10X
Voltage per ADC value:,5.000000mV,5.000000mV
Time interval        :,0.00200uS,0.00200uS

index,CH1_Voltage(mV),CH2_Voltage(mV)
1,240.000000,-3520.000000
2,240.000000,-3520.000000
3,240.000000,-3520.000000
4,240.000000,-3520.000000
5,240.000000,-3520.000000
6,240.000000,-3520.000000
7,320.000000,-3520.000000
8,320.000000,-3520.000000
9,240.000000,-3520.000000
10,240.000000,-3520.000000
11,240.000000,-3520.000000
12,240.000000,-3520.000000
13,320.000000,-3520.000000
14,320.000000,-3520.000000
15,320.000000,-3600.000000
16,320.000000,-3520.000000
17,320.000000,-3600.000000
18,400.000000,-3520.000000
19,320.000000,-3520.000000
20,400.000000,-3440.000000
21,400.000000,-3280.000000
22,480.000000,-3040.000000
23,560.000000,-2640.000000
24,720.000000,-1920.000000
25,720.000000,-1200.000000
26,720.000000,-400.000000
27,720.000000,160.000000
28,800.000000,640.000000
29,880.000000,1040.000000
30,880.000000,1360.000000
31,960.000000,1680.000000
32,960.000000,2000.000000
33,960.000000,2320.000000
34,960.000000,2480.000000
35,1040.000000,2720.000000
36,1040.000000,2800.000000
37,1040.000000,2960.000000
38,1040.000000,3120.000000
39,1120.000000,3280.000000
40,1120.000000,3360.000000
41,1200.000000,3520.000000
42,1200.000000,3600.000000
43,1200.000000,3760.000000
44,1280.000000,3840.000000
45,1280.000000,3920.000000
46,1280.000000,4000.000000
47,1280.000000,4080.000000
48,1200.000000,4080.000000
49,1200.000000,4160.000000
50,1200.000000,4080.000000
51,1280.000000,4160.000000
52,1280.000000,4160.000000
53,1280.000000,4160.000000
54,1280.000000,4240.000000
55,1280.000000,4240.000000
56,1280.000000,4320.000000
57,1280.000000,4320.000000
58,1360.000000,4320.000000
59,1360.000000,4320.000000
60,1280.000000,4320.000000
61,1280.000000,4400.000000
62,1280.000000,4320.000000
63,1280.000000,4400.000000
64,1280.000000,4400.000000
65,1280.000000,4400.000000
66,1280.000000,4480.000000
67,1280.000000,4400.000000
68,1280.000000,4400.000000
69,1280.000000,4400.000000
70,1280.000000,4400.000000
71,1280.000000,4400.000000
72,1200.000000,4320.000000
73,1280.000000,4160.000000
74,1200.000000,4000.000000
75,1120.000000,3840.000000
76,1120.000000,3520.000000
77,1040.000000,3280.000000
78,1040.000000,2880.000000
79,1040.000000,2560.000000
80,960.000000,2240.000000
81,880.000000,1920.000000
82,880.000000,1520.000000
83,800.000000,1200.000000
84,880.000000,880.000000
85,800.000000,480.000000
86,720.000000,160.000000
87,720.000000,-160.000000
88,720.000000,-480.000000
89,640.000000,-800.000000
90,560.000000,-1120.000000
91,480.000000,-1360.000000
92,480.000000,-1760.000000
93,480.000000,-2000.000000
94,400.000000,-2240.000000
95,400.000000,-2480.000000
96,320.000000,-2800.000000
97,320.000000,-2960.000000
98,320.000000,-3120.000000
99,320.000000,-3360.000000
100,320.000000,-3440.000000
101,240.000000,-3520.000000
102,240.000000,-3520.000000
103,240.000000,-3520.000000
104,240.000000,-3520.000000
105,240.000000,-3520.000000
106,240.000000,-3520.000000
107,160.000000,-3520.000000
108,240.000000,-3520.000000
109,240.000000,-3520.000000
110,240.000000,-3440.000000
111,240.000000,-3520.000000
112,240.000000,-3520.000000
113,160.000000,-3520.000000
114,240.000000,-3520.000000
115,240.000000,-3520.000000
116,240.000000,-3520.000000
117,240.000000,-3600.000000
118,240.000000,-3520.000000
119,240.000000,-3520.000000
120,320.000000,-3520.000000
121,320.000000,-3520.000000
122,240.000000,-3520.000000
123,240.000000,-3520.000000
124,240.000000,-3520.000000
125,240.000000,-3520.000000
126,320.000000,-3520.000000
127,240.000000,-3600.000000
128,320.000000,-3520.000000
129,320.000000,-3520.000000
130,320.000000,-3520.000000
131,320.000000,-3600.000000
132,320.000000,-3520.000000
133,320.000000,-3520.000000
134,320.000000,-3520.000000
135,400.000000,-3520.000000
136,400.000000,-3360.000000
137,400.000000,-3280.000000
138,480.000000,-2960.000000
139,640.000000,-2400.000000
140,720.000000,-1760.000000
141,720.000000,-960.000000
142,720.000000,-240.000000
143,720.000000,320.000000
144,800.000000,720.000000
145,880.000000,1120.000000
146,960.000000,1440.000000
147,960.000000,1840.000000
148,960.000000,2080.000000
149,960.000000,2320.000000
150,960.000000,2480.000000
151,960.000000,2720.000000
152,1040.000000,2800.000000
153,1040.000000,3040.000000
154,1040.000000,3120.000000
155,1120.000000,3280.000000
156,1200.000000,3440.000000
157,1200.000000,3520.000000
158,1280.000000,3680.000000
159,1200.000000,3760.000000
160,1200.000000,3840.000000
161,1280.000000,4000.000000
162,1280.000000,4000.000000
163,1280.000000,4000.000000
164,1200.000000,4080.000000
165,1280.000000,4160.000000
166,1280.000000,4160.000000
167,1280.000000,4160.000000
168,1280.000000,4160.000000
169,1280.000000,4160.000000
170,1280.000000,4240.000000
171,1280.000000,4320.000000
172,1360.000000,4320.000000
173,1360.000000,4320.000000
174,1280.000000,4320.000000
175,1280.000000,4320.000000
176,1280.000000,4400.000000
177,1280.000000,4400.000000
178,1360.000000,4400.000000
179,1360.000000,4400.000000
180,1280.000000,4400.000000
181,1280.000000,4480.000000
182,1280.000000,4480.000000
183,1280.000000,4480.000000
184,1280.000000,4400.000000
185,1280.000000,4480.000000
186,1200.000000,4400.000000
187,1280.000000,4400.000000
188,1200.000000,4240.000000
189,1200.000000,4160.000000
190,1200.000000,3920.000000
191,1120.000000,3680.000000
192,1120.000000,3440.000000
193,1040.000000,3120.000000
194,1040.000000,2800.000000
195,1040.000000,2400.000000
196,960.000000,2080.000000
197,960.000000,1760.000000
198,880.000000,1440.000000
199,880.000000,1040.000000
200,800.000000,640.000000
201,800.000000,400.000000
202,720.000000,0.000000
203,720.000000,-320.000000
204,640.000000,-640.000000
205,560.000000,-960.000000
206,560.000000,-1280.000000
207,480.000000,-1600.000000
208,480.000000,-1920.000000
209,400.000000,-2160.000000
210,400.000000,-2400.000000
211,400.000000,-2640.000000
212,320.000000,-2880.000000
213,320.000000,-3120.000000
214,320.000000,-3200.000000
215,320.000000,-3360.000000
216,320.000000,-3440.000000
217,240.000000,-3520.000000
218,240.000000,-3520.000000
219,240.000000,-3520.000000
220,240.000000,-3520.000000
221,240.000000,-3520.000000
222,240.000000,-3440.000000
223,240.000000,-3440.000000
224,240.000000,-3440.000000
225,240.000000,-3520.000000
226,240.000000,-3440.000000
227,240.000000,-3520.000000
228,240.000000,-3520.000000
229,160.000000,-3520.000000
230,240.000000,-3520.000000
231,240.000000,-3520.000000
232,240.000000,-3520.000000
233,240.000000,-3520.000000
234,240.000000,-3520.000000
235,240.000000,-3520.000000
236,240.000000,-3520.000000
237,240.000000,-3520.000000
238,240.000000,-3520.000000
239,240.000000,-3600.000000
240,240.000000,-3520.000000
241,240.000000,-3600.000000
242,320.000000,-3520.000000
243,320.000000,-3520.000000
244,320.000000,-3520.000000
245,320.000000,-3520.000000
246,320.000000,-3520.000000
247,400.000000,-3520.000000
248,320.000000,-3520.000000
249,320.000000,-3520.000000
250,400.000000,-3520.000000
251,400.000000,-3520.000000
252,480.000000,-3360.000000
253,480.000000,-3200.000000
254,560.000000,-2800.000000
255,640.000000,-2240.000000
256,720.000000,-1520.000000
257,800.000000,-720.000000
258,720.000000,-160.000000
259,800.000000,400.000000
260,800.000000,880.000000
261,960.000000,1280.000000
262,960.000000,1520.000000
263,960.000000,1840.000000
264,960.000000,2160.000000
265,960.000000,2400.000000
266,960.000000,2640.000000
267,1040.000000,2720.000000
268,1040.000000,2880.000000
269,1040.000000,3120.000000
270,1040.000000,3280.000000
271,1120.000000,3360.000000
272,1200.000000,3440.000000
273,1280.000000,3520.000000
274,1200.000000,3680.000000
275,1200.000000,3840.000000
276,1280.000000,3840.000000
277,1360.000000,3920.000000
278,1280.000000,4000.000000
279,1280.000000,4080.000000
280,1200.000000,4160.000000
281,1280.000000,4160.000000
282,1280.000000,4160.000000
283,1280.000000,4240.000000
284,1200.000000,4160.000000
285,1280.000000,4240.000000
286,1280.000000,4320.000000
287,1360.000000,4320.000000
288,1360.000000,4320.000000
289,1280.000000,4320.000000
290,1280.000000,4320.000000
291,1280.000000,4400.000000
292,1280.000000,4320.000000
293,1360.000000,4400.000000
294,1280.000000,4400.000000
295,1280.000000,4400.000000
296,1360.000000,4400.000000
297,1360.000000,4400.000000
298,1280.000000,4400.000000
299,1280.000000,4400.000000
300,1280.000000,4480.000000
301,1280.000000,4400.000000
302,1280.000000,4320.000000
303,1280.000000,4240.000000
304,1200.000000,4160.000000
305,1200.000000,4000.000000
306,1120.000000,3760.000000
307,1200.000000,3520.000000
308,1040.000000,3200.000000
309,1040.000000,2960.000000
310,1040.000000,2640.000000
311,1040.000000,2240.000000
312,960.000000,1920.000000
313,960.000000,1520.000000
314,800.000000,1200.000000
315,800.000000,880.000000
316,800.000000,560.000000
317,800.000000,240.000000
318,720.000000,-160.000000
319,640.000000,-480.000000
320,640.000000,-800.000000
321,560.000000,-1120.000000
322,560.000000,-1440.000000
323,560.000000,-1680.000000
324,480.000000,-2000.000000
325,480.000000,-2240.000000
326,400.000000,-2480.000000
327,320.000000,-2720.000000
328,400.000000,-2960.000000
329,320.000000,-3200.000000
330,320.000000,-3280.000000
331,240.000000,-3440.000000
332,320.000000,-3440.000000
333,320.000000,-3520.000000
334,320.000000,-3520.000000
335,320.000000,-3520.000000
336,240.000000,-3520.000000
337,240.000000,-3520.000000
338,320.000000,-3440.000000
339,320.000000,-3520.000000
340,240.000000,-3440.000000
341,240.000000,-3520.000000
342,240.000000,-3520.000000
343,240.000000,-3520.000000
344,240.000000,-3520.000000
345,240.000000,-3520.000000
346,240.000000,-3520.000000
347,240.000000,-3520.000000
348,240.000000,-3520.000000
349,240.000000,-3600.000000
350,240.000000,-3520.000000
351,320.000000,-3520.000000
352,240.000000,-3520.000000
353,240.000000,-3520.000000
354,240.000000,-3520.000000
355,320.000000,-3520.000000
356,320.000000,-3520.000000
357,320.000000,-3600.000000
358,240.000000,-3520.000000
359,320.000000,-3520.000000
360,320.000000,-3520.000000
361,320.000000,-3600.000000
362,320.000000,-3520.000000
363,320.000000,-3520.000000
364,320.000000,-3520.000000
365,320.000000,-3520.000000
366,400.000000,-3520.000000
367,400.000000,-3440.000000
368,400.000000,-3360.000000
369,400.000000,-3120.000000
370,560.000000,-2640.000000
371,720.000000,-2000.000000
372,720.000000,-1120.000000
373,720.000000,-480.000000
374,720.000000,80.000000
375,800.000000,640.000000
376,880.000000,1040.000000
377,960.000000,1440.000000
378,960.000000,1680.000000
379,1040.000000,2000.000000
380,960.000000,2240.000000
381,1040.000000,2480.000000
382,1040.000000,2640.000000
383,1040.000000,2880.000000
384,1040.000000,2960.000000
385,1040.000000,3120.000000
386,1120.000000,3280.000000
387,1200.000000,3360.000000
388,1200.000000,3520.000000
389,1280.000000,3600.000000
390,1280.000000,3760.000000
391,1360.000000,3840.000000
392,1280.000000,3920.000000
393,1280.000000,3920.000000
394,1280.000000,4080.000000
395,1280.000000,4160.000000
396,1200.000000,4160.000000
397,1280.000000,4160.000000
398,1280.000000,4160.000000
399,1280.000000,4160.000000
400,1280.000000,4240.000000
401,1280.000000,4240.000000
402,1280.000000,4240.000000
403,1360.000000,4320.000000
404,1360.000000,4240.000000
405,1360.000000,4320.000000
406,1280.000000,4320.000000
407,1360.000000,4320.000000
408,1280.000000,4400.000000
409,1360.000000,4400.000000
410,1360.000000,4400.000000
411,1280.000000,4400.000000
412,1280.000000,4400.000000
413,1280.000000,4480.000000
414,1280.000000,4480.000000
415,1280.000000,4480.000000
416,1280.000000,4480.000000
417,1280.000000,4320.000000
418,1280.000000,4320.000000
419,1200.000000,4320.000000
420,1200.000000,4080.000000
421,1200.000000,4000.000000
422,1120.000000,3760.000000
423,1120.000000,3440.000000
424,1120.000000,3200.000000
425,1040.000000,2880.000000
426,1040.000000,2480.000000
427,960.000000,2160.000000
428,960.000000,1840.000000
429,880.000000,1440.000000
430,880.000000,1120.000000
431,800.000000,800.000000
432,720.000000,400.000000
433,720.000000,160.000000
434,720.000000,-240.000000
435,720.000000,-560.000000
436,640.000000,-880.000000
437,640.000000,-1120.000000
438,560.000000,-1440.000000
439,480.000000,-1760.000000
440,480.000000,-2000.000000
441,400.000000,-2240.000000
442,400.000000,-2560.000000
443,400.000000,-2800.000000
444,320.000000,-2960.000000
445,320.000000,-3200.000000
446,320.000000,-3280.000000
447,320.000000,-3520.000000
448,320.000000,-3520.000000
449,240.000000,-3520.000000
450,320.000000,-3520.000000
451,240.000000,-3520.000000
452,240.000000,-3440.000000
453,240.000000,-3440.000000
454,240.000000,-3440.000000
455,240.000000,-3440.000000
456,240.000000,-3520.000000
457,160.000000,-3440.000000
458,240.000000,-3440.000000
459,240.000000,-3440.000000
460,240.000000,-3520.000000
461,160.000000,-3520.000000
462,240.000000,-3520.000000
463,240.000000,-3520.000000
464,240.000000,-3520.000000
465,240.000000,-3520.000000
466,240.000000,-3520.000000
467,240.000000,-3520.000000
468,240.000000,-3520.000000
469,240.000000,-3520.000000
470,320.000000,-3520.000000
471,240.000000,-3520.000000
472,240.000000,-3520.000000
473,240.000000,-3520.000000
474,320.000000,-3520.000000
475,320.000000,-3600.000000
476,320.000000,-3520.000000
477,320.000000,-3520.000000
478,320.000000,-3520.000000
479,320.000000,-3520.000000
480,400.000000,-3520.000000
481,320.000000,-3520.000000
482,320.000000,-3440.000000
483,320.000000,-3360.000000
484,400.000000,-3280.000000
485,480.000000,-2960.000000
486,640.000000,-2400.000000
487,720.000000,-1680.000000
488,720.000000,-880.000000
489,720.000000,-240.000000
490,800.000000,320.000000
491,880.000000,720.000000
492,880.000000,1120.000000
493,960.000000,1520.000000
494,960.000000,1760.000000
495,960.000000,2080.000000
496,960.000000,2320.000000
497,960.000000,2480.000000
498,1040.000000,2720.000000
499,1120.000000,2880.000000
500,1040.000000,3040.000000
501,1120.000000,3200.000000
502,1120.000000,3280.000000
503,1200.000000,3440.000000
504,1200.000000,3520.000000
505,1200.000000,3680.000000
506,1280.000000,3760.000000
507,1280.000000,3840.000000
508,1280.000000,4000.000000
509,1280.000000,4000.000000
510,1280.000000,4080.000000
511,1200.000000,4080.000000
512,1280.000000,4160.000000
513,1280.000000,4160.000000
514,1280.000000,4160.000000
515,1360.000000,4240.000000
516,1280.000000,4240.000000
517,1280.000000,4240.000000
518,1280.000000,4320.000000
519,1360.000000,4320.000000
520,1360.000000,4320.000000
521,1360.000000,4320.000000
522,1360.000000,4320.000000
523,1360.000000,4400.000000
524,1360.000000,4400.000000
525,1360.000000,4400.000000
526,1360.000000,4400.000000
527,1360.000000,4400.000000
528,1280.000000,4400.000000
529,1280.000000,4400.000000
530,1280.000000,4480.000000
531,1280.000000,4400.000000
532,1280.000000,4480.000000
533,1280.000000,4400.000000
534,1200.000000,4400.000000
535,1280.000000,4240.000000
536,1200.000000,4080.000000
537,1200.000000,3920.000000
538,1120.000000,3600.000000
539,1120.000000,3440.000000
540,1120.000000,3040.000000
541,1120.000000,2800.000000
542,960.000000,2480.000000
543,960.000000,2080.000000
544,880.000000,1760.000000
545,880.000000,1360.000000
546,880.000000,1040.000000
547,800.000000,720.000000
548,720.000000,320.000000
549,720.000000,0.000000
550,640.000000,-240.000000
551,640.000000,-640.000000
552,560.000000,-960.000000
553,560.000000,-1280.000000
554,480.000000,-1520.000000
555,480.000000,-1840.000000
556,480.000000,-2160.000000
557,400.000000,-2400.000000
558,400.000000,-2640.000000
559,320.000000,-2880.000000
560,320.000000,-3040.000000
561,320.000000,-3280.000000
562,320.000000,-3360.000000
563,240.000000,-3520.000000
564,240.000000,-3520.000000
565,240.000000,-3520.000000
566,240.000000,-3520.000000
567,240.000000,-3520.000000
568,240.000000,-3520.000000
569,240.000000,-3520.000000
570,240.000000,-3520.000000
571,240.000000,-3520.000000
572,240.000000,-3440.000000
573,240.000000,-3520.000000
574,240.000000,-3520.000000
575,240.000000,-3520.000000
576,240.000000,-3520.000000
577,240.000000,-3520.000000
578,240.000000,-3520.000000
579,240.000000,-3520.000000
580,240.000000,-3520.000000
581,240.000000,-3520.000000
582,320.000000,-3520.000000
583,240.000000,-3520.000000
584,320.000000,-3520.000000
585,320.000000,-3520.000000
586,320.000000,-3520.000000
587,240.000000,-3520.000000
588,320.000000,-3520.000000
589,240.000000,-3520.000000
590,320.000000,-3520.000000
591,240.000000,-3520.000000
592,320.000000,-3520.000000
593,320.000000,-3520.000000
594,320.000000,-3520.000000
595,320.000000,-3520.000000
596,320.000000,-3520.000000
597,320.000000,-3520.000000
598,400.000000,-3440.000000
599,400.000000,-3360.000000
600,400.000000,-3200.000000
601,480.000000,-2800.000000
602,640.000000,-2160.000000
603,720.000000,-1360.000000
604,720.000000,-720.000000
605,720.000000,0.000000
606,720.000000,400.000000
607,800.000000,880.000000
608,880.000000,1280.000000
609,960.000000,1600.000000
610,880.000000,1840.000000
611,960.000000,2160.000000
612,960.000000,2400.000000
613,1040.000000,2560.000000
614,1040.000000,2800.000000
615,1040.000000,2960.000000
616,1040.000000,3040.000000
617,1120.000000,3200.000000
618,1120.000000,3360.000000
619,1200.000000,3440.000000
620,1280.000000,3600.000000
621,1200.000000,3680.000000
622,1200.000000,3760.000000
623,1280.000000,3920.000000
624,1280.000000,4000.000000
625,1280.000000,4000.000000
626,1280.000000,4080.000000
627,1200.000000,4080.000000
628,1200.000000,4160.000000
629,1280.000000,4240.000000
630,1280.000000,4160.000000
631,1280.000000,4240.000000
632,1280.000000,4160.000000
633,1280.000000,4240.000000
634,1360.000000,4320.000000
635,1360.000000,4320.000000
636,1360.000000,4320.000000
637,1360.000000,4320.000000
638,1280.000000,4400.000000
639,1360.000000,4400.000000
640,1280.000000,4400.000000
641,1360.000000,4400.000000
642,1280.000000,4400.000000
643,1360.000000,4400.000000
644,1280.000000,4400.000000
645,1360.000000,4400.000000
646,1280.000000,4400.000000
647,1280.000000,4480.000000
648,1280.000000,4480.000000
649,1280.000000,4400.000000
650,1200.000000,4320.000000
651,1200.000000,4160.000000
652,1200.000000,4000.000000
653,1120.000000,3760.000000
654,1120.000000,3520.000000
655,1120.000000,3280.000000
656,1040.000000,2960.000000
657,1040.000000,2560.000000
658,1040.000000,2240.000000
659,960.000000,1920.000000
660,880.000000,1520.000000
661,880.000000,1200.000000
662,800.000000,880.000000
663,800.000000,560.000000
664,720.000000,240.000000
665,720.000000,-160.000000
666,720.000000,-480.000000
667,640.000000,-800.000000
668,560.000000,-1120.000000
669,560.000000,-1360.000000
670,480.000000,-1680.000000
671,400.000000,-2000.000000
672,400.000000,-2240.000000
673,400.000000,-2480.000000
674,400.000000,-2720.000000
675,320.000000,-2960.000000
676,320.000000,-3120.000000
677,320.000000,-3360.000000
678,240.000000,-3360.000000
679,320.000000,-3520.000000
680,240.000000,-3520.000000
681,160.000000,-3520.000000
682,240.000000,-3520.000000
683,160.000000,-3440.000000
684,240.000000,-3440.000000
685,160.000000,-3440.000000
686,240.000000,-3440.000000
687,240.000000,-3520.000000
688,240.000000,-3520.000000
689,240.000000,-3520.000000
690,240.000000,-3520.000000
691,240.000000,-3520.000000
692,240.000000,-3520.000000
693,240.000000,-3520.000000
694,240.000000,-3520.000000
695,240.000000,-3520.000000
696,240.000000,-3520.000000
697,240.000000,-3520.000000
698,240.000000,-3520.000000
699,320.000000,-3520.000000
700,240.000000,-3520.000000
701,320.000000,-3520.000000
702,240.000000,-3520.000000
703,320.000000,-3520.000000
704,320.000000,-3520.000000
705,320.000000,-3520.000000
706,320.000000,-3520.000000
707,240.000000,-3520.000000
708,320.000000,-3520.000000
709,320.000000,-3520.000000
710,320.000000,-3520.000000
711,400.000000,-3520.000000
712,320.000000,-3440.000000
