docs/source/electronics/mosfet/docs/VER1(Triangle_600Hz)/Ch1_Ch2.csv

Channel              :,CH1,CH2
Frequency            :,601.5Hz,599.7Hz
Period               :,1.663ms,1.668ms
PK-PK                :,3.520V,3.120V
Probe attenuation    :,10X,10X
Voltage per ADC value:,5.000000mV,5.000000mV
Time interval        :,1.00000uS,1.00000uS

index,CH1_Voltage(mV),CH2_Voltage(mV)
1,-480.000000,-1040.000000
2,-480.000000,-1040.000000
3,-480.000000,-1040.000000
4,-400.000000,-1040.000000
5,-480.000000,-1040.000000
6,-480.000000,-960.000000
7,-400.000000,-1040.000000
8,-400.000000,-1040.000000
9,-400.000000,-1040.000000
10,-400.000000,-1040.000000
11,-400.000000,-960.000000
12,-400.000000,-960.000000
13,-400.000000,-960.000000
14,-480.000000,-1040.000000
15,-320.000000,-1040.000000
16,-320.000000,-960.000000
17,-400.000000,-960.000000
18,-320.000000,-960.000000
19,-320.000000,-960.000000
20,-400.000000,-960.000000
21,-320.000000,-960.000000
22,-240.000000,-960.000000
23,-240.000000,-960.000000
24,-320.000000,-960.000000
25,-320.000000,-880.000000
26,-240.000000,-960.000000
27,-240.000000,-960.000000
28,-240.000000,-960.000000
29,-240.000000,-960.000000
30,-240.000000,-880.000000
31,-240.000000,-880.000000
32,-240.000000,-960.000000
33,-240.000000,-880.000000
34,-160.000000,-880.000000
35,-160.000000,-880.000000
36,-160.000000,-880.000000
37,-160.000000,-960.000000
38,-160.000000,-960.000000
39,-160.000000,-880.000000
40,-160.000000,-960.000000
41,-80.000000,-880.000000
42,-80.000000,-880.000000
43,-160.000000,-880.000000
44,-80.000000,-880.000000
45,-80.000000,-880.000000
46,-80.000000,-880.000000
47,-80.000000,-880.000000
48,-80.000000,-880.000000
49,-80.000000,-880.000000
50,-80.000000,-960.000000
51,0.000000,-960.000000
52,-80.000000,-960.000000
53,-80.000000,-880.000000
54,-80.000000,-880.000000
55,0.000000,-880.000000
56,0.000000,-880.000000
57,0.000000,-880.000000
58,0.000000,-880.000000
59,0.000000,-880.000000
60,0.000000,-880.000000
61,0.000000,-880.000000
62,0.000000,-880.000000
63,-80.000000,-880.000000
64,0.000000,-960.000000
65,0.000000,-960.000000
66,0.000000,-880.000000
67,80.000000,-880.000000
68,80.000000,-880.000000
69,0.000000,-880.000000
70,80.000000,-880.000000
71,0.000000,-880.000000
72,80.000000,-880.000000
73,80.000000,-880.000000
74,80.000000,-880.000000
75,80.000000,-880.000000
76,80.000000,-880.000000
77,80.000000,-880.000000
78,80.000000,-880.000000
79,160.000000,-880.000000
80,160.000000,-880.000000
81,160.000000,-880.000000
82,80.000000,-880.000000
83,160.000000,-880.000000
84,160.000000,-880.000000
85,160.000000,-880.000000
86,160.000000,-880.000000
87,80.000000,-880.000000
88,80.000000,-880.000000
89,160.000000,-880.000000
90,240.000000,-880.000000
91,240.000000,-880.000000
92,160.000000,-880.000000
93,240.000000,-880.000000
94,160.000000,-880.000000
95,160.000000,-880.000000
96,160.000000,-880.000000
97,240.000000,-880.000000
98,160.000000,-880.000000
99,240.000000,-960.000000
100,240.000000,-880.000000
101,240.000000,-880.000000
102,240.000000,-880.000000
103,240.000000,-880.000000
104,240.000000,-960.000000
105,240.000000,-880.000000
106,240.000000,-880.000000
107,240.000000,-880.000000
108,320.000000,-880.000000
109,240.000000,-880.000000
110,240.000000,-960.000000
111,240.000000,-960.000000
112,240.000000,-880.000000
113,320.000000,-880.000000
114,240.000000,-880.000000
115,240.000000,-880.000000
116,320.000000,-960.000000
117,320.000000,-880.000000
118,320.000000,-960.000000
119,320.000000,-960.000000
120,320.000000,-880.000000
121,320.000000,-880.000000
122,320.000000,-880.000000
123,320.000000,-960.000000
124,320.000000,-880.000000
125,320.000000,-960.000000
126,400.000000,-960.000000
127,320.000000,-960.000000
128,320.000000,-960.000000
129,400.000000,-880.000000
130,400.000000,-960.000000
131,400.000000,-960.000000
132,400.000000,-880.000000
133,400.000000,-960.000000
134,400.000000,-960.000000
135,400.000000,-960.000000
136,400.000000,-960.000000
137,320.000000,-960.000000
138,400.000000,-960.000000
139,400.000000,-960.000000
140,400.000000,-960.000000
141,400.000000,-1040.000000
142,400.000000,-960.000000
143,480.000000,-960.000000
144,400.000000,-960.000000
145,400.000000,-960.000000
146,480.000000,-960.000000
147,480.000000,-960.000000
148,400.000000,-1040.000000
149,400.000000,-1040.000000
150,400.000000,-960.000000
151,400.000000,-960.000000
152,480.000000,-960.000000
153,480.000000,-960.000000
154,480.000000,-1040.000000
155,480.000000,-1040.000000
156,480.000000,-1040.000000
157,480.000000,-1040.000000
158,480.000000,-960.000000
159,480.000000,-1040.000000
160,480.000000,-1040.000000
161,480.000000,-1040.000000
162,480.000000,-1040.000000
163,480.000000,-1040.000000
164,480.000000,-960.000000
165,480.000000,-960.000000
166,480.000000,-1040.000000
167,480.000000,-1040.000000
168,480.000000,-1040.000000
169,560.000000,-1040.000000
170,480.000000,-1040.000000
171,560.000000,-1040.000000
172,560.000000,-1040.000000
173,480.000000,-1040.000000
174,480.000000,-1040.000000
175,480.000000,-1120.000000
176,560.000000,-1040.000000
177,480.000000,-1040.000000
178,560.000000,-1040.000000
179,560.000000,-1040.000000
180,560.000000,-1040.000000
181,560.000000,-1040.000000
182,560.000000,-1120.000000
183,480.000000,-1120.000000
184,560.000000,-1120.000000
185,560.000000,-1120.000000
186,560.000000,-1120.000000
187,560.000000,-1120.000000
188,560.000000,-1120.000000
189,560.000000,-1120.000000
190,560.000000,-1120.000000
191,560.000000,-1120.000000
192,560.000000,-1120.000000
193,560.000000,-1120.000000
194,560.000000,-1120.000000
195,560.000000,-1120.000000
196,560.000000,-1120.000000
197,560.000000,-1120.000000
198,560.000000,-1120.000000
199,560.000000,-1120.000000
200,560.000000,-1120.000000
201,560.000000,-1120.000000
202,560.000000,-1120.000000
203,560.000000,-1120.000000
204,560.000000,-1120.000000
205,560.000000,-1120.000000
206,640.000000,-1120.000000
207,640.000000,-1200.000000
208,560.000000,-1120.000000
209,560.000000,-1120.000000
210,640.000000,-1120.000000
211,640.000000,-1200.000000
212,640.000000,-1200.000000
213,640.000000,-1200.000000
214,640.000000,-1200.000000
215,560.000000,-1200.000000
216,640.000000,-1200.000000
217,640.000000,-1200.000000
218,640.000000,-1200.000000
219,640.000000,-1200.000000
220,640.000000,-1200.000000
221,560.000000,-1200.000000
222,640.000000,-1200.000000
223,640.000000,-1200.000000
224,640.000000,-1280.000000
225,640.000000,-1280.000000
226,640.000000,-1280.000000
227,640.000000,-1200.000000
228,640.000000,-1280.000000
229,640.000000,-1280.000000
230,640.000000,-1280.000000
231,640.000000,-1280.000000
232,640.000000,-1280.000000
233,640.000000,-1280.000000
234,640.000000,-1200.000000
235,640.000000,-1280.000000
236,640.000000,-1280.000000
237,720.000000,-1280.000000
238,640.000000,-1280.000000
239,640.000000,-1280.000000
240,720.000000,-1280.000000
241,640.000000,-1280.000000
242,640.000000,-1360.000000
243,720.000000,-1360.000000
244,720.000000,-1280.000000
245,720.000000,-1280.000000
246,800.000000,-1360.000000
247,640.000000,-1280.000000
248,720.000000,-1360.000000
249,720.000000,-1360.000000
250,720.000000,-1360.000000
251,720.000000,-1360.000000
252,720.000000,-1360.000000
253,720.000000,-1280.000000
254,720.000000,-1360.000000
255,720.000000,-1360.000000
256,720.000000,-1360.000000
257,720.000000,-1360.000000
258,720.000000,-1360.000000
259,720.000000,-1360.000000
260,720.000000,-1360.000000
261,720.000000,-1440.000000
262,720.000000,-1440.000000
263,720.000000,-1360.000000
264,720.000000,-1360.000000
265,720.000000,-1440.000000
266,720.000000,-1360.000000
267,720.000000,-1440.000000
268,720.000000,-1440.000000
269,800.000000,-1440.000000
270,800.000000,-1440.000000
271,800.000000,-1360.000000
272,720.000000,-1440.000000
273,720.000000,-1440.000000
274,720.000000,-1440.000000
275,720.000000,-1440.000000
276,800.000000,-1440.000000
277,720.000000,-1440.000000
278,720.000000,-1440.000000
279,720.000000,-1440.000000
280,720.000000,-1440.000000
281,800.000000,-1440.000000
282,720.000000,-1440.000000
283,720.000000,-1520.000000
284,720.000000,-1520.000000
285,800.000000,-1440.000000
286,720.000000,-1520.000000
287,720.000000,-1520.000000
288,720.000000,-1440.000000
289,800.000000,-1520.000000
290,720.000000,-1520.000000
291,800.000000,-1520.000000
292,720.000000,-1520.000000
293,720.000000,-1600.000000
294,720.000000,-1520.000000
295,800.000000,-1600.000000
296,800.000000,-1520.000000
297,800.000000,-1520.000000
298,720.000000,-1520.000000
299,800.000000,-1600.000000
300,800.000000,-1520.000000
301,800.000000,-1600.000000
302,800.000000,-1600.000000
303,800.000000,-1520.000000
304,800.000000,-1520.000000
305,720.000000,-1600.000000
306,800.000000,-1600.000000
307,800.000000,-1600.000000
308,800.000000,-1600.000000
309,800.000000,-1520.000000
310,800.000000,-1600.000000
311,800.000000,-1600.000000
312,720.000000,-1600.000000
313,800.000000,-1600.000000
314,800.000000,-1600.000000
315,880.000000,-1600.000000
316,800.000000,-1600.000000
317,800.000000,-1600.000000
318,800.000000,-1680.000000
319,880.000000,-1680.000000
320,880.000000,-1600.000000
321,880.000000,-1600.000000
322,800.000000,-1680.000000
323,800.000000,-1680.000000
324,800.000000,-1680.000000
325,800.000000,-1600.000000
326,800.000000,-1600.000000
327,800.000000,-1680.000000
328,800.000000,-1680.000000
329,800.000000,-1680.000000
330,800.000000,-1680.000000
331,800.000000,-1680.000000
332,800.000000,-1680.000000
333,800.000000,-1680.000000
334,800.000000,-1680.000000
335,800.000000,-1680.000000
336,800.000000,-1680.000000
337,800.000000,-1680.000000
338,800.000000,-1680.000000
339,800.000000,-1680.000000
340,880.000000,-1680.000000
341,880.000000,-1680.000000
342,880.000000,-1680.000000
343,800.000000,-1680.000000
344,880.000000,-1760.000000
345,880.000000,-1680.000000
346,880.000000,-1680.000000
347,880.000000,-1680.000000
348,880.000000,-1680.000000
349,880.000000,-1760.000000
350,880.000000,-1680.000000
351,880.000000,-1760.000000
352,880.000000,-1760.000000
353,880.000000,-1760.000000
354,880.000000,-1680.000000
355,880.000000,-1760.000000
356,880.000000,-1760.000000
357,880.000000,-1760.000000
358,880.000000,-1760.000000
359,880.000000,-1760.000000
360,960.000000,-1760.000000
361,960.000000,-1760.000000
362,960.000000,-1760.000000
363,960.000000,-1760.000000
364,880.000000,-1760.000000
365,880.000000,-1760.000000
366,960.000000,-1760.000000
367,960.000000,-1760.000000
368,960.000000,-1760.000000
369,960.000000,-1760.000000
370,960.000000,-1760.000000
371,960.000000,-1760.000000
372,960.000000,-1760.000000
373,960.000000,-1760.000000
374,960.000000,-1760.000000
375,960.000000,-1760.000000
376,960.000000,-1760.000000
377,960.000000,-1760.000000
378,960.000000,-1760.000000
379,1040.000000,-1760.000000
380,1040.000000,-1760.000000
381,960.000000,-1760.000000
382,1040.000000,-1760.000000
383,1040.000000,-1760.000000
384,960.000000,-1840.000000
385,1040.000000,-1760.000000
386,1040.000000,-1840.000000
387,1040.000000,-1840.000000
388,1040.000000,-1760.000000
389,1040.000000,-1840.000000
390,1040.000000,-1760.000000
391,1040.000000,-1760.000000
392,1040.000000,-1840.000000
393,1040.000000,-1760.000000
394,1040.000000,-1840.000000
395,1040.000000,-1760.000000
396,1040.000000,-1840.000000
397,1040.000000,-1840.000000
398,1120.000000,-1840.000000
399,1120.000000,-1760.000000
400,1120.000000,-1840.000000
401,1120.000000,-1840.000000
402,1120.000000,-1840.000000
403,1120.000000,-1840.000000
404,1120.000000,-1840.000000
405,1120.000000,-1840.000000
406,1120.000000,-1840.000000
407,1200.000000,-1840.000000
408,1120.000000,-1840.000000
409,1120.000000,-1840.000000
410,1120.000000,-1840.000000
411,1120.000000,-1840.000000
412,1120.000000,-1840.000000
413,1120.000000,-1840.000000
414,1200.000000,-1840.000000
415,1200.000000,-1840.000000
416,1120.000000,-1840.000000
417,1200.000000,-1840.000000
418,1200.000000,-1840.000000
419,1200.000000,-1840.000000
420,1200.000000,-1760.000000
421,1200.000000,-1840.000000
422,1200.000000,-1840.000000
423,1200.000000,-1840.000000
424,1200.000000,-1840.000000
425,1200.000000,-1840.000000
426,1200.000000,-1840.000000
427,1280.000000,-1840.000000
428,1200.000000,-1840.000000
429,1280.000000,-1840.000000
430,1200.000000,-1840.000000
431,1280.000000,-1840.000000
432,1280.000000,-1840.000000
433,1280.000000,-1920.000000
434,1280.000000,-1920.000000
435,1280.000000,-1840.000000
436,1280.000000,-1840.000000
437,1280.000000,-1840.000000
438,1280.000000,-1920.000000
439,1280.000000,-1840.000000
440,1280.000000,-1840.000000
441,1280.000000,-1840.000000
442,1280.000000,-1840.000000
443,1280.000000,-1840.000000
444,1280.000000,-1840.000000
445,1280.000000,-1840.000000
446,1280.000000,-1840.000000
447,1280.000000,-1840.000000
448,1360.000000,-1840.000000
449,1280.000000,-1840.000000
450,1360.000000,-1920.000000
451,1360.000000,-1920.000000
452,1360.000000,-1840.000000
453,1360.000000,-1840.000000
454,1360.000000,-1840.000000
455,1360.000000,-1840.000000
456,1360.000000,-1840.000000
457,1360.000000,-1840.000000
458,1360.000000,-1840.000000
459,1360.000000,-1840.000000
460,1360.000000,-1920.000000
461,1360.000000,-1920.000000
462,1440.000000,-1840.000000
463,1360.000000,-1840.000000
464,1440.000000,-1840.000000
465,1440.000000,-1840.000000
466,1440.000000,-1920.000000
467,1440.000000,-1840.000000
468,1360.000000,-1920.000000
469,1440.000000,-1920.000000
470,1440.000000,-1920.000000
471,1440.000000,-1840.000000
472,1440.000000,-1920.000000
473,1440.000000,-1920.000000
474,1440.000000,-1920.000000
475,1520.000000,-1840.000000
476,1440.000000,-1920.000000
477,1520.000000,-1920.000000
478,1520.000000,-1920.000000
479,1440.000000,-1920.000000
480,1440.000000,-1920.000000
481,1440.000000,-1840.000000
482,1440.000000,-1920.000000
483,1520.000000,-1840.000000
484,1520.000000,-1920.000000
485,1520.000000,-1840.000000
486,1520.000000,-1920.000000
487,1520.000000,-1920.000000
488,1520.000000,-1920.000000
489,1520.000000,-1920.000000
490,1600.000000,-1920.000000
491,1600.000000,-1840.000000
492,1520.000000,-1920.000000
493,1600.000000,-1920.000000
494,1600.000000,-1920.000000
495,1520.000000,-1840.000000
496,1600.000000,-1840.000000
497,1600.000000,-1920.000000
498,1600.000000,-1920.000000
499,1600.000000,-1920.000000
500,1600.000000,-1920.000000
501,1600.000000,-1920.000000
502,1600.000000,-1840.000000
503,1680.000000,-1920.000000
504,1680.000000,-1920.000000
505,1600.000000,-1920.000000
506,1600.000000,-1920.000000
507,1680.000000,-1920.000000
508,1600.000000,-1840.000000
509,1600.000000,-1920.000000
510,1680.000000,-1920.000000
511,1680.000000,-1920.000000
512,1680.000000,-1920.000000
513,1680.000000,-1920.000000
514,1680.000000,-1920.000000
515,1680.000000,-1920.000000
516,1680.000000,-1920.000000
517,1760.000000,-1920.000000
518,1680.000000,-1920.000000
519,1760.000000,-1840.000000
520,1680.000000,-1920.000000
521,1680.000000,-1920.000000
522,1760.000000,-1920.000000
523,1760.000000,-1840.000000
524,1680.000000,-1920.000000
525,1680.000000,-1920.000000
526,1760.000000,-1920.000000
527,1760.000000,-1920.000000
528,1760.000000,-1840.000000
529,1760.000000,-1920.000000
530,1760.000000,-1920.000000
531,1760.000000,-1920.000000
532,1760.000000,-1920.000000
533,1760.000000,-1920.000000
534,1760.000000,-1920.000000
535,1760.000000,-1920.000000
536,1760.000000,-1920.000000
537,1760.000000,-2000.000000
538,1760.000000,-2000.000000
539,1760.000000,-2000.000000
540,1760.000000,-2000.000000
541,1760.000000,-2000.000000
542,1760.000000,-2000.000000
543,1760.000000,-2000.000000
544,1760.000000,-2000.000000
545,1760.000000,-2000.000000
546,1760.000000,-2000.000000
547,1680.000000,-2000.000000
548,1680.000000,-2000.000000
549,1760.000000,-2000.000000
550,1760.000000,-2000.000000
551,1760.000000,-2080.000000
552,1680.000000,-2080.000000
553,1680.000000,-2080.000000
554,1680.000000,-2000.000000
555,1760.000000,-2080.000000
556,1760.000000,-2080.000000
557,1760.000000,-2080.000000
558,1680.000000,-2160.000000
559,1760.000000,-2080.000000
560,1680.000000,-2080.000000
561,1760.000000,-2160.000000
562,1680.000000,-2160.000000
563,1760.000000,-2160.000000
564,1760.000000,-2160.000000
565,1680.000000,-2160.000000
566,1680.000000,-2160.000000
567,1680.000000,-2160.000000
568,1760.000000,-2160.000000
569,1760.000000,-2160.000000
570,1680.000000,-2160.000000
571,1680.000000,-2160.000000
572,1680.000000,-2160.000000
573,1680.000000,-2160.000000
574,1680.000000,-2160.000000
575,1760.000000,-2160.000000
576,1760.000000,-2240.000000
577,1680.000000,-2240.000000
578,1680.000000,-2240.000000
579,1680.000000,-2240.000000
580,1680.000000,-2240.000000
581,1680.000000,-2240.000000
582,1680.000000,-2320.000000
583,1680.000000,-2240.000000
584,1680.000000,-2240.000000
585,1680.000000,-2240.000000
586,1600.000000,-2320.000000
587,1680.000000,-2320.000000
588,1680.000000,-2320.000000
589,1760.000000,-2320.000000
590,1680.000000,-2320.000000
591,1680.000000,-2320.000000
592,1680.000000,-2320.000000
593,1680.000000,-2320.000000
594,1680.000000,-2320.000000
595,1680.000000,-2320.000000
596,1680.000000,-2400.000000
597,1680.000000,-2400.000000
598,1680.000000,-2400.000000
599,1680.000000,-2400.000000
600,1680.000000,-2400.000000
601,1680.000000,-2400.000000
602,1680.000000,-2400.000000
603,1680.000000,-2400.000000
604,1680.000000,-2400.000000
605,1680.000000,-2400.000000
606,1600.000000,-2400.000000
607,1760.000000,-2400.000000
608,1680.000000,-2400.000000
609,1680.000000,-2480.000000
610,1680.000000,-2480.000000
611,1600.000000,-2480.000000
612,1680.000000,-2480.000000
613,1680.000000,-2480.000000
614,1600.000000,-2480.000000
615,1600.000000,-2480.000000
616,1680.000000,-2480.000000
617,1680.000000,-2480.000000
618,1600.000000,-2560.000000
619,1600.000000,-2560.000000
620,1680.000000,-2560.000000
621,1680.000000,-2480.000000
622,1680.000000,-2560.000000
623,1680.000000,-2560.000000
624,1680.000000,-2560.000000
625,1600.000000,-2560.000000
626,1680.000000,-2560.000000
627,1680.000000,-2560.000000
628,1600.000000,-2640.000000
629,1680.000000,-2560.000000
630,1680.000000,-2640.000000
631,1680.000000,-2640.000000
632,1600.000000,-2640.000000
633,1680.000000,-2640.000000
634,1680.000000,-2640.000000
635,1680.000000,-2640.000000
636,1600.000000,-2640.000000
637,1680.000000,-2640.000000
638,1600.000000,-2640.000000
639,1680.000000,-2640.000000
640,1680.000000,-2720.000000
641,1680.000000,-2720.000000
642,1680.000000,-2720.000000
643,1600.000000,-2720.000000
644,1600.000000,-2720.000000
645,1680.000000,-2640.000000
646,1680.000000,-2720.000000
647,1680.000000,-2720.000000
648,1600.000000,-2720.000000
649,1600.000000,-2800.000000
650,1680.000000,-2720.000000
651,1600.000000,-2720.000000
652,1680.000000,-2800.000000
653,1680.000000,-2800.000000
654,1600.000000,-2800.000000
655,1680.000000,-2800.000000
656,1600.000000,-2800.000000
657,1600.000000,-2800.000000
658,1600.000000,-2800.000000
659,1600.000000,-2800.000000
660,1680.000000,-2800.000000
661,1600.000000,-2880.000000
662,1600.000000,-2800.000000
663,1600.000000,-2800.000000
664,1600.000000,-2800.000000
665,1600.000000,-2800.000000
666,1680.000000,-2880.000000
667,1600.000000,-2880.000000
668,1600.000000,-2880.000000
669,1600.000000,-2960.000000
670,1600.000000,-2880.000000
671,1600.000000,-2880.000000
672,1600.000000,-2880.000000
673,1680.000000,-2880.000000
674,1600.000000,-2880.000000
675,1600.000000,-2960.000000
676,1600.000000,-2880.000000
677,1600.000000,-2960.000000
678,1600.000000,-2960.000000
679,1600.000000,-2960.000000
680,1680.000000,-2960.000000
681,1600.000000,-2960.000000
682,1600.000000,-2960.000000
683,1600.000000,-2960.000000
684,1600.000000,-2960.000000
685,1600.000000,-2960.000000
686,1600.000000,-2960.000000
687,1600.000000,-3040.000000
688,1600.000000,-3040.000000
689,1600.000000,-2960.000000
690,1600.000000,-3040.000000
691,1600.000000,-3040.000000
692,1600.000000,-3040.000000
693,1680.000000,-3040.000000
694,1600.000000,-3040.000000
695,1600.000000,-3040.000000
696,1520.000000,-3040.000000
697,1600.000000,-3040.000000
698,1600.000000,-3040.000000
699,1680.000000,-3040.000000
700,1600.000000,-3040.000000
