docs/source/electronics/mosfet/docs/VER1(Triangle_600Hz)/Ch1_Ch2_no_Un.csv

Channel              :,CH1,CH2
Frequency            :,603.3Hz,602.4Hz
Period               :,1.658ms,1.660ms
PK-PK                :,2.640V,3.440V
Probe attenuation    :,10X,10X
Voltage per ADC value:,5.000000mV,5.000000mV
Time interval        :,1.00000uS,1.00000uS

index,CH1_Voltage(mV),CH2_Voltage(mV)
1,-720.000000,-880.000000
2,-720.000000,-880.000000
3,-720.000000,-960.000000
4,-720.000000,-880.000000
5,-720.000000,-880.000000
6,-720.000000,-880.000000
7,-640.000000,-880.000000
8,-640.000000,-880.000000
9,-640.000000,-880.000000
10,-640.000000,-880.000000
11,-640.000000,-880.000000
12,-640.000000,-800.000000
13,-640.000000,-880.000000
14,-640.000000,-880.000000
15,-640.000000,-880.000000
16,-640.000000,-880.000000
17,-560.000000,-880.000000
18,-560.000000,-880.000000
19,-560.000000,-800.000000
20,-560.000000,-800.000000
21,-560.000000,-880.000000
22,-560.000000,-880.000000
23,-560.000000,-800.000000
24,-560.000000,-800.000000
25,-560.000000,-800.000000
26,-560.000000,-880.000000
27,-480.000000,-800.000000
28,-480.000000,-800.000000
29,-480.000000,-800.000000
30,-480.000000,-800.000000
31,-480.000000,-800.000000
32,-480.000000,-800.000000
33,-480.000000,-800.000000
34,-400.000000,-800.000000
35,-480.000000,-800.000000
36,-400.000000,-800.000000
37,-400.000000,-800.000000
38,-400.000000,-800.000000
39,-400.000000,-800.000000
40,-400.000000,-800.000000
41,-400.000000,-800.000000
42,-400.000000,-800.000000
43,-320.000000,-800.000000
44,-320.000000,-800.000000
45,-400.000000,-720.000000
46,-320.000000,-720.000000
47,-240.000000,-800.000000
48,-320.000000,-800.000000
49,-240.000000,-800.000000
50,-320.000000,-720.000000
51,-320.000000,-720.000000
52,-320.000000,-720.000000
53,-320.000000,-800.000000
54,-240.000000,-800.000000
55,-240.000000,-720.000000
56,-240.000000,-720.000000
57,-240.000000,-800.000000
58,-240.000000,-720.000000
59,-240.000000,-720.000000
60,-240.000000,-720.000000
61,-240.000000,-720.000000
62,-240.000000,-720.000000
63,-240.000000,-720.000000
64,-240.000000,-720.000000
65,-160.000000,-720.000000
66,-80.000000,-720.000000
67,-160.000000,-640.000000
68,-160.000000,-720.000000
69,-160.000000,-720.000000
70,-160.000000,-800.000000
71,-160.000000,-720.000000
72,-160.000000,-720.000000
73,-160.000000,-720.000000
74,-80.000000,-720.000000
75,-80.000000,-720.000000
76,-80.000000,-720.000000
77,-80.000000,-720.000000
78,-80.000000,-720.000000
79,-80.000000,-720.000000
80,-80.000000,-720.000000
81,-80.000000,-720.000000
82,-80.000000,-720.000000
83,-80.000000,-720.000000
84,0.000000,-720.000000
85,-80.000000,-720.000000
86,0.000000,-720.000000
87,0.000000,-720.000000
88,0.000000,-720.000000
89,0.000000,-720.000000
90,0.000000,-720.000000
91,0.000000,-720.000000
92,0.000000,-720.000000
93,80.000000,-720.000000
94,0.000000,-720.000000
95,0.000000,-720.000000
96,0.000000,-720.000000
97,0.000000,-640.000000
98,0.000000,-720.000000
99,80.000000,-720.000000
100,80.000000,-720.000000
101,80.000000,-720.000000
102,80.000000,-720.000000
103,80.000000,-720.000000
104,80.000000,-720.000000
105,80.000000,-720.000000
106,160.000000,-720.000000
107,160.000000,-720.000000
108,80.000000,-720.000000
109,80.000000,-720.000000
110,80.000000,-720.000000
111,160.000000,-720.000000
112,160.000000,-720.000000
113,80.000000,-720.000000
114,160.000000,-720.000000
115,160.000000,-720.000000
116,80.000000,-720.000000
117,160.000000,-720.000000
118,160.000000,-640.000000
119,160.000000,-720.000000
120,160.000000,-720.000000
121,160.000000,-720.000000
122,160.000000,-720.000000
123,160.000000,-720.000000
124,160.000000,-720.000000
125,240.000000,-720.000000
126,240.000000,-720.000000
127,240.000000,-720.000000
128,160.000000,-720.000000
129,240.000000,-720.000000
130,240.000000,-720.000000
131,240.000000,-720.000000
132,320.000000,-720.000000
133,320.000000,-720.000000
134,320.000000,-720.000000
135,240.000000,-720.000000
136,240.000000,-720.000000
137,320.000000,-720.000000
138,320.000000,-720.000000
139,320.000000,-720.000000
140,320.000000,-720.000000
141,240.000000,-800.000000
142,320.000000,-800.000000
143,320.000000,-720.000000
144,320.000000,-720.000000
145,320.000000,-720.000000
146,320.000000,-720.000000
147,320.000000,-720.000000
148,320.000000,-720.000000
149,320.000000,-720.000000
150,400.000000,-720.000000
151,400.000000,-720.000000
152,400.000000,-720.000000
153,400.000000,-720.000000
154,320.000000,-720.000000
155,400.000000,-720.000000
156,320.000000,-720.000000
157,320.000000,-720.000000
158,400.000000,-720.000000
159,400.000000,-720.000000
160,400.000000,-720.000000
161,400.000000,-720.000000
162,400.000000,-800.000000
163,400.000000,-720.000000
164,480.000000,-720.000000
165,400.000000,-720.000000
166,400.000000,-720.000000
167,400.000000,-720.000000
168,400.000000,-800.000000
169,400.000000,-720.000000
170,480.000000,-720.000000
171,400.000000,-800.000000
172,480.000000,-720.000000
173,400.000000,-720.000000
174,480.000000,-800.000000
175,400.000000,-720.000000
176,480.000000,-800.000000
177,480.000000,-800.000000
178,480.000000,-800.000000
179,480.000000,-800.000000
180,480.000000,-720.000000
181,480.000000,-720.000000
182,480.000000,-720.000000
183,480.000000,-800.000000
184,480.000000,-800.000000
185,480.000000,-800.000000
186,480.000000,-800.000000
187,480.000000,-800.000000
188,480.000000,-800.000000
189,480.000000,-800.000000
190,480.000000,-800.000000
191,560.000000,-800.000000
192,480.000000,-800.000000
193,480.000000,-800.000000
194,560.000000,-800.000000
195,560.000000,-800.000000
196,560.000000,-800.000000
197,560.000000,-800.000000
198,560.000000,-800.000000
199,560.000000,-800.000000
200,560.000000,-800.000000
201,560.000000,-800.000000
202,560.000000,-800.000000
203,560.000000,-800.000000
204,560.000000,-800.000000
205,560.000000,-800.000000
206,560.000000,-880.000000
207,560.000000,-800.000000
208,560.000000,-800.000000
209,560.000000,-800.000000
210,560.000000,-880.000000
211,640.000000,-880.000000
212,560.000000,-880.000000
213,560.000000,-800.000000
214,640.000000,-880.000000
215,560.000000,-800.000000
216,640.000000,-880.000000
217,640.000000,-880.000000
218,640.000000,-880.000000
219,640.000000,-880.000000
220,640.000000,-880.000000
221,560.000000,-880.000000
222,640.000000,-880.000000
223,720.000000,-880.000000
224,640.000000,-880.000000
225,640.000000,-880.000000
226,640.000000,-880.000000
227,640.000000,-880.000000
228,640.000000,-880.000000
229,640.000000,-880.000000
230,640.000000,-880.000000
231,640.000000,-880.000000
232,640.000000,-880.000000
233,640.000000,-960.000000
234,640.000000,-880.000000
235,640.000000,-880.000000
236,640.000000,-880.000000
237,720.000000,-880.000000
238,640.000000,-960.000000
239,720.000000,-960.000000
240,640.000000,-880.000000
241,640.000000,-960.000000
242,720.000000,-960.000000
243,720.000000,-960.000000
244,640.000000,-960.000000
245,720.000000,-880.000000
246,720.000000,-960.000000
247,720.000000,-960.000000
248,720.000000,-880.000000
249,720.000000,-880.000000
250,720.000000,-880.000000
251,720.000000,-960.000000
252,720.000000,-960.000000
253,720.000000,-960.000000
254,720.000000,-960.000000
255,720.000000,-960.000000
256,800.000000,-960.000000
257,720.000000,-960.000000
258,720.000000,-960.000000
259,720.000000,-960.000000
260,720.000000,-1040.000000
261,800.000000,-1040.000000
262,720.000000,-960.000000
263,720.000000,-960.000000
264,720.000000,-960.000000
265,800.000000,-1040.000000
266,720.000000,-960.000000
267,720.000000,-1040.000000
268,800.000000,-1040.000000
269,800.000000,-960.000000
270,720.000000,-1040.000000
271,800.000000,-1040.000000
272,800.000000,-1040.000000
273,800.000000,-1040.000000
274,800.000000,-1040.000000
275,800.000000,-1040.000000
276,800.000000,-1040.000000
277,800.000000,-1040.000000
278,800.000000,-1040.000000
279,800.000000,-1120.000000
280,800.000000,-1040.000000
281,800.000000,-1040.000000
282,800.000000,-1040.000000
283,880.000000,-1120.000000
284,800.000000,-1120.000000
285,800.000000,-1040.000000
286,800.000000,-1120.000000
287,800.000000,-1040.000000
288,800.000000,-1120.000000
289,800.000000,-1120.000000
290,800.000000,-1120.000000
291,800.000000,-1120.000000
292,800.000000,-1040.000000
293,800.000000,-1120.000000
294,800.000000,-1120.000000
295,880.000000,-1120.000000
296,800.000000,-1120.000000
297,800.000000,-1120.000000
298,880.000000,-1120.000000
299,800.000000,-1120.000000
300,880.000000,-1120.000000
301,880.000000,-1120.000000
302,880.000000,-1120.000000
303,880.000000,-1120.000000
304,800.000000,-1120.000000
305,880.000000,-1120.000000
306,800.000000,-1120.000000
307,880.000000,-1200.000000
308,880.000000,-1120.000000
309,880.000000,-1200.000000
310,880.000000,-1200.000000
311,880.000000,-1200.000000
312,880.000000,-1200.000000
313,880.000000,-1120.000000
314,880.000000,-1200.000000
315,880.000000,-1200.000000
316,880.000000,-1200.000000
317,880.000000,-1200.000000
318,800.000000,-1200.000000
319,880.000000,-1200.000000
320,880.000000,-1280.000000
321,880.000000,-1200.000000
322,880.000000,-1200.000000
323,880.000000,-1200.000000
324,880.000000,-1200.000000
325,880.000000,-1200.000000
326,960.000000,-1200.000000
327,880.000000,-1200.000000
328,880.000000,-1280.000000
329,960.000000,-1200.000000
330,880.000000,-1280.000000
331,880.000000,-1280.000000
332,880.000000,-1280.000000
333,960.000000,-1280.000000
334,880.000000,-1280.000000
335,960.000000,-1280.000000
336,880.000000,-1280.000000
337,960.000000,-1280.000000
338,880.000000,-1280.000000
339,960.000000,-1280.000000
340,960.000000,-1360.000000
341,880.000000,-1280.000000
342,960.000000,-1280.000000
343,960.000000,-1280.000000
344,880.000000,-1280.000000
345,880.000000,-1360.000000
346,960.000000,-1360.000000
347,960.000000,-1280.000000
348,960.000000,-1280.000000
349,960.000000,-1360.000000
350,880.000000,-1280.000000
351,960.000000,-1360.000000
352,960.000000,-1360.000000
353,960.000000,-1360.000000
354,960.000000,-1360.000000
355,960.000000,-1360.000000
356,960.000000,-1360.000000
357,960.000000,-1360.000000
358,960.000000,-1360.000000
359,960.000000,-1360.000000
360,960.000000,-1360.000000
361,960.000000,-1360.000000
362,960.000000,-1440.000000
363,960.000000,-1360.000000
364,960.000000,-1360.000000
365,960.000000,-1440.000000
366,960.000000,-1440.000000
367,960.000000,-1360.000000
368,960.000000,-1440.000000
369,960.000000,-1440.000000
370,960.000000,-1440.000000
371,960.000000,-1440.000000
372,960.000000,-1440.000000
373,960.000000,-1440.000000
374,960.000000,-1360.000000
375,960.000000,-1440.000000
376,960.000000,-1440.000000
377,960.000000,-1440.000000
378,960.000000,-1440.000000
379,1040.000000,-1440.000000
380,960.000000,-1440.000000
381,1040.000000,-1440.000000
382,960.000000,-1440.000000
383,960.000000,-1520.000000
384,960.000000,-1520.000000
385,960.000000,-1440.000000
386,1040.000000,-1440.000000
387,960.000000,-1520.000000
388,960.000000,-1520.000000
389,960.000000,-1520.000000
390,960.000000,-1520.000000
391,960.000000,-1520.000000
392,960.000000,-1520.000000
393,960.000000,-1520.000000
394,1040.000000,-1520.000000
395,1040.000000,-1520.000000
396,960.000000,-1520.000000
397,960.000000,-1520.000000
398,1040.000000,-1520.000000
399,1040.000000,-1520.000000
400,960.000000,-1600.000000
401,960.000000,-1600.000000
402,960.000000,-1520.000000
403,960.000000,-1600.000000
404,960.000000,-1520.000000
405,960.000000,-1520.000000
406,1040.000000,-1600.000000
407,1040.000000,-1600.000000
408,960.000000,-1600.000000
409,1040.000000,-1600.000000
410,960.000000,-1600.000000
411,1040.000000,-1600.000000
412,1040.000000,-1600.000000
413,960.000000,-1600.000000
414,1040.000000,-1600.000000
415,1040.000000,-1600.000000
416,960.000000,-1600.000000
417,1040.000000,-1680.000000
418,1040.000000,-1600.000000
419,1040.000000,-1680.000000
420,1040.000000,-1680.000000
421,1040.000000,-1600.000000
422,1040.000000,-1680.000000
423,960.000000,-1680.000000
424,1040.000000,-1680.000000
425,1040.000000,-1680.000000
426,1040.000000,-1680.000000
427,1040.000000,-1680.000000
428,1040.000000,-1680.000000
429,1040.000000,-1680.000000
430,1040.000000,-1680.000000
431,1040.000000,-1680.000000
432,1040.000000,-1680.000000
433,1040.000000,-1680.000000
434,1120.000000,-1680.000000
435,1040.000000,-1760.000000
436,1040.000000,-1760.000000
437,1040.000000,-1760.000000
438,1120.000000,-1760.000000
439,1040.000000,-1760.000000
440,1040.000000,-1760.000000
441,1040.000000,-1760.000000
442,1040.000000,-1760.000000
443,1040.000000,-1760.000000
444,1040.000000,-1760.000000
445,1040.000000,-1760.000000
446,1120.000000,-1760.000000
447,1040.000000,-1760.000000
448,1040.000000,-1760.000000
449,1040.000000,-1760.000000
450,1040.000000,-1760.000000
451,1040.000000,-1760.000000
452,1040.000000,-1760.000000
453,1040.000000,-1760.000000
454,1040.000000,-1840.000000
455,1040.000000,-1760.000000
456,1040.000000,-1840.000000
457,1120.000000,-1760.000000
458,1120.000000,-1840.000000
459,1120.000000,-1840.000000
460,1040.000000,-1840.000000
461,1120.000000,-1840.000000
462,1120.000000,-1840.000000
463,1120.000000,-1840.000000
464,1120.000000,-1840.000000
465,1120.000000,-1840.000000
466,1120.000000,-1920.000000
467,1120.000000,-1840.000000
468,1040.000000,-1920.000000
469,1040.000000,-1920.000000
470,1040.000000,-1920.000000
471,1120.000000,-1920.000000
472,1120.000000,-1840.000000
473,1120.000000,-1920.000000
474,1120.000000,-1920.000000
475,1040.000000,-1920.000000
476,1120.000000,-1920.000000
477,1120.000000,-1920.000000
478,1120.000000,-1920.000000
479,1120.000000,-1920.000000
480,1120.000000,-1920.000000
481,1120.000000,-1920.000000
482,1120.000000,-1920.000000
483,1120.000000,-1920.000000
484,1120.000000,-1920.000000
485,1120.000000,-1920.000000
486,1120.000000,-2000.000000
487,1120.000000,-2000.000000
488,1120.000000,-1920.000000
489,1120.000000,-1920.000000
490,1120.000000,-2000.000000
491,1120.000000,-2000.000000
492,1120.000000,-2000.000000
493,1120.000000,-2000.000000
494,1120.000000,-2000.000000
495,1120.000000,-2000.000000
496,1120.000000,-2000.000000
497,1120.000000,-2000.000000
498,1120.000000,-2000.000000
499,1120.000000,-2000.000000
500,1120.000000,-2000.000000
501,1120.000000,-2000.000000
502,1120.000000,-2000.000000
503,1120.000000,-2080.000000
504,1120.000000,-2080.000000
505,1120.000000,-2080.000000
506,1120.000000,-2080.000000
507,1120.000000,-2000.000000
508,1120.000000,-2080.000000
509,1120.000000,-2080.000000
510,1120.000000,-2080.000000
511,1120.000000,-2080.000000
512,1120.000000,-2080.000000
513,1120.000000,-2080.000000
514,1120.000000,-2080.000000
515,1120.000000,-2080.000000
516,1200.000000,-2080.000000
517,1120.000000,-2080.000000
518,1120.000000,-2160.000000
519,1120.000000,-2080.000000
520,1120.000000,-2080.000000
521,1120.000000,-2160.000000
522,1120.000000,-2160.000000
523,1120.000000,-2080.000000
524,1200.000000,-2160.000000
525,1200.000000,-2080.000000
526,1120.000000,-2160.000000
527,1120.000000,-2160.000000
528,1120.000000,-2160.000000
529,1200.000000,-2160.000000
530,1120.000000,-2160.000000
531,1200.000000,-2160.000000
532,1120.000000,-2160.000000
533,1120.000000,-2160.000000
534,1200.000000,-2160.000000
535,1200.000000,-2160.000000
536,1200.000000,-2240.000000
537,1200.000000,-2160.000000
538,1200.000000,-2160.000000
539,1200.000000,-2160.000000
540,1120.000000,-2240.000000
541,1200.000000,-2160.000000
542,1200.000000,-2240.000000
543,1200.000000,-2160.000000
544,1200.000000,-2240.000000
545,1200.000000,-2240.000000
546,1120.000000,-2240.000000
547,1120.000000,-2240.000000
548,1200.000000,-2240.000000
549,1120.000000,-2240.000000
550,1200.000000,-2240.000000
551,1200.000000,-2240.000000
552,1200.000000,-2240.000000
553,1120.000000,-2240.000000
554,1200.000000,-2320.000000
555,1200.000000,-2320.000000
556,1200.000000,-2320.000000
557,1200.000000,-2240.000000
558,1200.000000,-2240.000000
559,1200.000000,-2240.000000
560,1200.000000,-2240.000000
561,1200.000000,-2320.000000
562,1200.000000,-2320.000000
563,1200.000000,-2320.000000
564,1200.000000,-2320.000000
565,1200.000000,-2320.000000
566,1200.000000,-2320.000000
567,1200.000000,-2320.000000
568,1200.000000,-2400.000000
569,1200.000000,-2400.000000
570,1200.000000,-2320.000000
571,1200.000000,-2400.000000
572,1200.000000,-2320.000000
573,1200.000000,-2320.000000
574,1200.000000,-2400.000000
575,1200.000000,-2320.000000
576,1200.000000,-2400.000000
577,1200.000000,-2400.000000
578,1200.000000,-2400.000000
579,1200.000000,-2400.000000
580,1200.000000,-2400.000000
581,1200.000000,-2400.000000
582,1200.000000,-2400.000000
583,1200.000000,-2400.000000
584,1280.000000,-2400.000000
585,1200.000000,-2400.000000
586,1200.000000,-2480.000000
587,1200.000000,-2480.000000
588,1280.000000,-2400.000000
589,1280.000000,-2480.000000
590,1200.000000,-2480.000000
591,1280.000000,-2480.000000
592,1200.000000,-2480.000000
593,1200.000000,-2480.000000
594,1280.000000,-2480.000000
595,1200.000000,-2480.000000
596,1200.000000,-2480.000000
597,1200.000000,-2560.000000
598,1200.000000,-2480.000000
599,1200.000000,-2480.000000
600,1200.000000,-2480.000000
601,1200.000000,-2480.000000
602,1200.000000,-2560.000000
603,1200.000000,-2560.000000
604,1200.000000,-2560.000000
605,1200.000000,-2560.000000
606,1200.000000,-2560.000000
607,1200.000000,-2560.000000
608,1280.000000,-2560.000000
609,1280.000000,-2560.000000
610,1280.000000,-2560.000000
611,1200.000000,-2560.000000
612,1200.000000,-2560.000000
613,1200.000000,-2560.000000
614,1280.000000,-2560.000000
615,1280.000000,-2560.000000
616,1200.000000,-2560.000000
617,1280.000000,-2560.000000
618,1280.000000,-2640.000000
619,1200.000000,-2640.000000
620,1200.000000,-2640.000000
621,1280.000000,-2640.000000
622,1280.000000,-2640.000000
623,1280.000000,-2640.000000
624,1280.000000,-2640.000000
625,1280.000000,-2640.000000
626,1280.000000,-2640.000000
627,1280.000000,-2640.000000
628,1280.000000,-2640.000000
629,1200.000000,-2640.000000
630,1280.000000,-2640.000000
631,1280.000000,-2640.000000
632,1200.000000,-2720.000000
633,1280.000000,-2720.000000
634,1280.000000,-2720.000000
635,1280.000000,-2720.000000
636,1200.000000,-2720.000000
637,1200.000000,-2720.000000
638,1200.000000,-2720.000000
639,1280.000000,-2720.000000
640,1280.000000,-2720.000000
641,1280.000000,-2720.000000
642,1280.000000,-2720.000000
643,1280.000000,-2720.000000
644,1280.000000,-2720.000000
645,1280.000000,-2720.000000
646,1200.000000,-2800.000000
647,1280.000000,-2800.000000
648,1280.000000,-2800.000000
649,1200.000000,-2800.000000
650,1280.000000,-2800.000000
651,1280.000000,-2800.000000
652,1280.000000,-2800.000000
653,1280.000000,-2800.000000
654,1200.000000,-2800.000000
655,1280.000000,-2800.000000
656,1280.000000,-2800.000000
657,1280.000000,-2800.000000
658,1280.000000,-2800.000000
659,1280.000000,-2800.000000
660,1280.000000,-2880.000000
661,1280.000000,-2800.000000
662,1280.000000,-2800.000000
663,1280.000000,-2880.000000
664,1280.000000,-2800.000000
665,1280.000000,-2880.000000
666,1280.000000,-2880.000000
667,1280.000000,-2880.000000
668,1280.000000,-2880.000000
669,1280.000000,-2880.000000
670,1280.000000,-2880.000000
671,1280.000000,-2880.000000
672,1280.000000,-2880.000000
673,1360.000000,-2960.000000
674,1360.000000,-2880.000000
675,1280.000000,-2880.000000
676,1280.000000,-2960.000000
677,1280.000000,-2960.000000
678,1280.000000,-2960.000000
679,1280.000000,-2960.000000
680,1280.000000,-2960.000000
681,1280.000000,-2960.000000
682,1280.000000,-2960.000000
683,1280.000000,-2960.000000
684,1280.000000,-2960.000000
685,1280.000000,-2960.000000
686,1280.000000,-2960.000000
687,1280.000000,-2960.000000
688,1280.000000,-2960.000000
689,1280.000000,-2960.000000
690,1280.000000,-2960.000000
691,1280.000000,-2960.000000
692,1360.000000,-2960.000000
693,1280.000000,-2960.000000
694,1280.000000,-3040.000000
695,1280.000000,-2960.000000
696,1280.000000,-2960.000000
697,1280.000000,-3040.000000
698,1280.000000,-3040.000000
699,1360.000000,-3040.000000
700,1280.000000,-3040.000000
701,1280.000000,-3040.000000
702,1280.000000,-3040.000000
703,1280.000000,-3040.000000
704,1360.000000,-3040.000000
