docs/source/electronics/mosfet/docs/VER1(Triangle_600Hz)/Ch4.csv

Channel              :,CH1,CH2
Frequency            :,599.7Hz,599.7Hz
Period               :,1.668ms,1.668ms
PK-PK                :,5.040V,8.640V
Probe attenuation    :,10X,10X
Voltage per ADC value:,5.000000mV,5.000000mV
Time interval        :,1.00000uS,1.00000uS

index,CH1_Voltage(mV),CH2_Voltage(mV)
1,2160.000000,8560.000000
2,2160.000000,8560.000000
3,2080.000000,8560.000000
4,2160.000000,8560.000000
5,2080.000000,8640.000000
6,2160.000000,8640.000000
7,2080.000000,8640.000000
8,2160.000000,8640.000000
9,2160.000000,8560.000000
10,2240.000000,8560.000000
11,2160.000000,8640.000000
12,2160.000000,8560.000000
13,2160.000000,8640.000000
14,2160.000000,8560.000000
15,2160.000000,8560.000000
16,2160.000000,8640.000000
17,2240.000000,8560.000000
18,2160.000000,8560.000000
19,2240.000000,8560.000000
20,2160.000000,8560.000000
21,2240.000000,8560.000000
22,2240.000000,8560.000000
23,2240.000000,8560.000000
24,2240.000000,8560.000000
25,2240.000000,8560.000000
26,2240.000000,8560.000000
27,2240.000000,8560.000000
28,2240.000000,8560.000000
29,2320.000000,8560.000000
30,2240.000000,8560.000000
31,2240.000000,8560.000000
32,2320.000000,8560.000000
33,2240.000000,8560.000000
34,2320.000000,8480.000000
35,2320.000000,8480.000000
36,2320.000000,8480.000000
37,2320.000000,8480.000000
38,2320.000000,8480.000000
39,2320.000000,8480.000000
40,2320.000000,8480.000000
41,2320.000000,8480.000000
42,2320.000000,8400.000000
43,2320.000000,8400.000000
44,2320.000000,8400.000000
45,2400.000000,8400.000000
46,2400.000000,8480.000000
47,2400.000000,8400.000000
48,2400.000000,8400.000000
49,2400.000000,8320.000000
50,2400.000000,8400.000000
51,2400.000000,8400.000000
52,2400.000000,8320.000000
53,2400.000000,8320.000000
54,2480.000000,8320.000000
55,2400.000000,8320.000000
56,2400.000000,8240.000000
57,2400.000000,8240.000000
58,2480.000000,8240.000000
59,2400.000000,8240.000000
60,2480.000000,8160.000000
61,2480.000000,8240.000000
62,2480.000000,8160.000000
63,2480.000000,8080.000000
64,2480.000000,8080.000000
65,2480.000000,8080.000000
66,2480.000000,8000.000000
67,2560.000000,8000.000000
68,2560.000000,8000.000000
69,2560.000000,7920.000000
70,2480.000000,7840.000000
71,2480.000000,7840.000000
72,2560.000000,7840.000000
73,2560.000000,7840.000000
74,2560.000000,7760.000000
75,2560.000000,7760.000000
76,2560.000000,7680.000000
77,2560.000000,7680.000000
78,2560.000000,7600.000000
79,2560.000000,7600.000000
80,2640.000000,7520.000000
81,2640.000000,7520.000000
82,2560.000000,7440.000000
83,2560.000000,7360.000000
84,2560.000000,7360.000000
85,2560.000000,7360.000000
86,2640.000000,7280.000000
87,2640.000000,7280.000000
88,2560.000000,7200.000000
89,2640.000000,7200.000000
90,2640.000000,7120.000000
91,2640.000000,7040.000000
92,2640.000000,7040.000000
93,2640.000000,6960.000000
94,2640.000000,6960.000000
95,2640.000000,6880.000000
96,2640.000000,6800.000000
97,2640.000000,6800.000000
98,2640.000000,6800.000000
99,2640.000000,6720.000000
100,2720.000000,6640.000000
101,2720.000000,6560.000000
102,2720.000000,6560.000000
103,2720.000000,6480.000000
104,2640.000000,6400.000000
105,2720.000000,6400.000000
106,2720.000000,6320.000000
107,2720.000000,6240.000000
108,2720.000000,6240.000000
109,2720.000000,6160.000000
110,2720.000000,6080.000000
111,2720.000000,6080.000000
112,2800.000000,6000.000000
113,2800.000000,6000.000000
114,2720.000000,5920.000000
115,2720.000000,5840.000000
116,2800.000000,5840.000000
117,2800.000000,5760.000000
118,2800.000000,5680.000000
119,2800.000000,5600.000000
120,2800.000000,5520.000000
121,2800.000000,5520.000000
122,2800.000000,5440.000000
123,2800.000000,5360.000000
124,2800.000000,5280.000000
125,2800.000000,5280.000000
126,2800.000000,5200.000000
127,2800.000000,5120.000000
128,2800.000000,5120.000000
129,2800.000000,5040.000000
130,2800.000000,5040.000000
131,2800.000000,4880.000000
132,2880.000000,4880.000000
133,2880.000000,4800.000000
134,2880.000000,4720.000000
135,2880.000000,4720.000000
136,2880.000000,4640.000000
137,2880.000000,4560.000000
138,2880.000000,4480.000000
139,2880.000000,4400.000000
140,2880.000000,4400.000000
141,2880.000000,4400.000000
142,2880.000000,4240.000000
143,2880.000000,4240.000000
144,2960.000000,4160.000000
145,2960.000000,4080.000000
146,2960.000000,4080.000000
147,2960.000000,4000.000000
148,2960.000000,3920.000000
149,2960.000000,3840.000000
150,2960.000000,3760.000000
151,2960.000000,3760.000000
152,2960.000000,3680.000000
153,3040.000000,3680.000000
154,3040.000000,3600.000000
155,2960.000000,3520.000000
156,2960.000000,3440.000000
157,2960.000000,3440.000000
158,3040.000000,3360.000000
159,3040.000000,3360.000000
160,2960.000000,3280.000000
161,3040.000000,3200.000000
162,3040.000000,3120.000000
163,3040.000000,3120.000000
164,3040.000000,3040.000000
165,3120.000000,2960.000000
166,3040.000000,2960.000000
167,3040.000000,2880.000000
168,3040.000000,2800.000000
169,3040.000000,2800.000000
170,3040.000000,2800.000000
171,3040.000000,2720.000000
172,3120.000000,2640.000000
173,3120.000000,2640.000000
174,3120.000000,2560.000000
175,3120.000000,2480.000000
176,3120.000000,2480.000000
177,3120.000000,2480.000000
178,3120.000000,2400.000000
179,3120.000000,2320.000000
180,3120.000000,2320.000000
181,3120.000000,2320.000000
182,3120.000000,2240.000000
183,3120.000000,2240.000000
184,3120.000000,2160.000000
185,3200.000000,2160.000000
186,3200.000000,2080.000000
187,3200.000000,2080.000000
188,3120.000000,2000.000000
189,3120.000000,2000.000000
190,3200.000000,1920.000000
191,3200.000000,1920.000000
192,3200.000000,1920.000000
193,3200.000000,1840.000000
194,3200.000000,1840.000000
195,3200.000000,1760.000000
196,3200.000000,1760.000000
197,3200.000000,1760.000000
198,3280.000000,1680.000000
199,3200.000000,1680.000000
200,3280.000000,1680.000000
201,3280.000000,1600.000000
202,3280.000000,1600.000000
203,3280.000000,1520.000000
204,3280.000000,1520.000000
205,3280.000000,1440.000000
206,3280.000000,1440.000000
207,3280.000000,1440.000000
208,3280.000000,1440.000000
209,3280.000000,1360.000000
210,3280.000000,1360.000000
211,3360.000000,1280.000000
212,3280.000000,1280.000000
213,3360.000000,1280.000000
214,3360.000000,1280.000000
215,3280.000000,1200.000000
216,3360.000000,1200.000000
217,3360.000000,1200.000000
218,3360.000000,1200.000000
219,3360.000000,1120.000000
220,3360.000000,1120.000000
221,3360.000000,1040.000000
222,3360.000000,1040.000000
223,3440.000000,1040.000000
224,3360.000000,1040.000000
225,3360.000000,960.000000
226,3360.000000,960.000000
227,3440.000000,960.000000
228,3440.000000,960.000000
229,3440.000000,960.000000
230,3440.000000,880.000000
231,3440.000000,880.000000
232,3440.000000,880.000000
233,3520.000000,880.000000
234,3440.000000,800.000000
235,3440.000000,800.000000
236,3440.000000,800.000000
237,3520.000000,800.000000
238,3440.000000,720.000000
239,3520.000000,720.000000
240,3520.000000,640.000000
241,3520.000000,640.000000
242,3520.000000,640.000000
243,3520.000000,560.000000
244,3520.000000,560.000000
245,3520.000000,560.000000
246,3520.000000,560.000000
247,3520.000000,560.000000
248,3520.000000,480.000000
249,3600.000000,480.000000
250,3600.000000,480.000000
251,3520.000000,480.000000
252,3600.000000,400.000000
253,3600.000000,400.000000
254,3600.000000,400.000000
255,3600.000000,320.000000
256,3600.000000,400.000000
257,3600.000000,320.000000
258,3600.000000,320.000000
259,3600.000000,320.000000
260,3600.000000,240.000000
261,3600.000000,240.000000
262,3600.000000,240.000000
263,3600.000000,240.000000
264,3680.000000,240.000000
265,3600.000000,160.000000
266,3600.000000,160.000000
267,3680.000000,160.000000
268,3680.000000,160.000000
269,3680.000000,160.000000
270,3680.000000,80.000000
271,3680.000000,80.000000
272,3760.000000,160.000000
273,3680.000000,80.000000
274,3680.000000,80.000000
275,3680.000000,80.000000
276,3760.000000,80.000000
277,3760.000000,80.000000
278,3760.000000,80.000000
279,3760.000000,80.000000
280,3680.000000,80.000000
281,3760.000000,80.000000
282,3760.000000,80.000000
283,3760.000000,80.000000
284,3760.000000,80.000000
285,3760.000000,80.000000
286,3760.000000,80.000000
287,3760.000000,80.000000
288,3840.000000,80.000000
289,3840.000000,80.000000
290,3840.000000,80.000000
291,3840.000000,80.000000
292,3840.000000,80.000000
293,3840.000000,80.000000
294,3840.000000,80.000000
295,3840.000000,80.000000
296,3840.000000,80.000000
297,3840.000000,80.000000
298,3840.000000,80.000000
299,3840.000000,80.000000
300,3840.000000,80.000000
301,3920.000000,80.000000
302,3920.000000,80.000000
303,3920.000000,80.000000
304,3840.000000,80.000000
305,3840.000000,80.000000
306,3920.000000,80.000000
307,3920.000000,80.000000
308,3920.000000,80.000000
309,3920.000000,0.000000
310,3920.000000,80.000000
311,3920.000000,80.000000
312,3920.000000,80.000000
313,3920.000000,80.000000
314,4000.000000,80.000000
315,4000.000000,80.000000
316,4000.000000,0.000000
317,4000.000000,80.000000
318,3920.000000,80.000000
319,3920.000000,80.000000
320,3920.000000,80.000000
321,4000.000000,80.000000
322,4000.000000,80.000000
323,4000.000000,80.000000
324,4000.000000,80.000000
325,4000.000000,80.000000
326,4000.000000,80.000000
327,4000.000000,80.000000
328,4080.000000,80.000000
329,4080.000000,80.000000
330,4080.000000,80.000000
331,4080.000000,80.000000
332,4080.000000,80.000000
333,4080.000000,80.000000
334,4080.000000,80.000000
335,4080.000000,80.000000
336,4080.000000,80.000000
337,4080.000000,80.000000
338,4080.000000,80.000000
339,4080.000000,80.000000
340,4080.000000,80.000000
341,4080.000000,80.000000
342,4160.000000,80.000000
343,4080.000000,80.000000
344,4160.000000,80.000000
345,4160.000000,80.000000
346,4160.000000,80.000000
347,4160.000000,80.000000
348,4160.000000,80.000000
349,4160.000000,80.000000
350,4160.000000,80.000000
351,4160.000000,80.000000
352,4160.000000,80.000000
353,4160.000000,80.000000
354,4240.000000,80.000000
355,4160.000000,80.000000
356,4240.000000,80.000000
357,4240.000000,80.000000
358,4160.000000,80.000000
359,4240.000000,80.000000
360,4240.000000,80.000000
361,4240.000000,0.000000
362,4240.000000,80.000000
363,4240.000000,0.000000
364,4240.000000,80.000000
365,4160.000000,80.000000
366,4240.000000,0.000000
367,4320.000000,80.000000
368,4320.000000,80.000000
369,4320.000000,0.000000
370,4240.000000,80.000000
371,4240.000000,80.000000
372,4320.000000,80.000000
373,4320.000000,80.000000
374,4320.000000,80.000000
375,4320.000000,80.000000
376,4320.000000,80.000000
377,4320.000000,80.000000
378,4320.000000,80.000000
379,4320.000000,80.000000
380,4320.000000,80.000000
381,4320.000000,80.000000
382,4400.000000,80.000000
383,4320.000000,80.000000
384,4320.000000,80.000000
385,4400.000000,80.000000
386,4400.000000,80.000000
387,4400.000000,80.000000
388,4400.000000,0.000000
389,4400.000000,80.000000
390,4400.000000,80.000000
391,4400.000000,80.000000
392,4400.000000,80.000000
393,4480.000000,80.000000
394,4480.000000,80.000000
395,4400.000000,80.000000
396,4400.000000,80.000000
397,4480.000000,80.000000
398,4480.000000,80.000000
399,4480.000000,80.000000
400,4480.000000,80.000000
401,4480.000000,80.000000
402,4480.000000,80.000000
403,4480.000000,80.000000
404,4480.000000,80.000000
405,4480.000000,80.000000
406,4560.000000,80.000000
407,4480.000000,80.000000
408,4560.000000,80.000000
409,4480.000000,80.000000
410,4560.000000,80.000000
411,4480.000000,80.000000
412,4560.000000,80.000000
413,4560.000000,80.000000
414,4560.000000,80.000000
415,4560.000000,80.000000
416,4560.000000,80.000000
417,4560.000000,80.000000
418,4640.000000,80.000000
419,4560.000000,80.000000
420,4560.000000,80.000000
421,4640.000000,80.000000
422,4640.000000,80.000000
423,4560.000000,80.000000
424,4640.000000,80.000000
425,4640.000000,80.000000
426,4640.000000,80.000000
427,4720.000000,0.000000
428,4640.000000,80.000000
429,4640.000000,0.000000
430,4640.000000,80.000000
431,4640.000000,80.000000
432,4640.000000,80.000000
433,4720.000000,80.000000
434,4640.000000,80.000000
435,4720.000000,80.000000
436,4640.000000,80.000000
437,4640.000000,0.000000
438,4720.000000,80.000000
439,4720.000000,80.000000
440,4720.000000,80.000000
441,4720.000000,80.000000
442,4720.000000,80.000000
443,4720.000000,80.000000
444,4800.000000,80.000000
445,4800.000000,80.000000
446,4800.000000,80.000000
447,4720.000000,80.000000
448,4720.000000,80.000000
449,4720.000000,80.000000
450,4800.000000,80.000000
451,4800.000000,80.000000
452,4800.000000,80.000000
453,4800.000000,80.000000
454,4800.000000,80.000000
455,4720.000000,80.000000
456,4800.000000,80.000000
457,4880.000000,80.000000
458,4880.000000,80.000000
459,4800.000000,80.000000
460,4880.000000,80.000000
461,4880.000000,0.000000
462,4880.000000,0.000000
463,4880.000000,80.000000
464,4880.000000,80.000000
465,4880.000000,0.000000
466,4880.000000,80.000000
467,4880.000000,0.000000
468,4880.000000,80.000000
469,4880.000000,80.000000
470,4880.000000,80.000000
471,4880.000000,80.000000
472,4880.000000,80.000000
473,4880.000000,80.000000
474,4880.000000,80.000000
475,4880.000000,80.000000
476,4880.000000,80.000000
477,4960.000000,80.000000
478,4960.000000,0.000000
479,4960.000000,80.000000
480,4960.000000,80.000000
481,4880.000000,80.000000
482,4880.000000,80.000000
483,4960.000000,80.000000
484,4960.000000,80.000000
485,4960.000000,80.000000
486,4960.000000,80.000000
487,4960.000000,80.000000
488,4960.000000,80.000000
489,4960.000000,0.000000
490,5040.000000,80.000000
491,5040.000000,80.000000
492,5040.000000,80.000000
493,5040.000000,80.000000
494,5040.000000,80.000000
495,5040.000000,80.000000
496,5040.000000,80.000000
497,5040.000000,80.000000
498,5040.000000,0.000000
499,5040.000000,80.000000
500,5120.000000,80.000000
501,5040.000000,80.000000
502,5040.000000,80.000000
503,5120.000000,80.000000
504,5120.000000,80.000000
505,5120.000000,80.000000
506,5120.000000,80.000000
507,5040.000000,80.000000
508,5120.000000,80.000000
509,5040.000000,80.000000
510,5120.000000,80.000000
511,5040.000000,160.000000
512,5040.000000,0.000000
513,5040.000000,0.000000
514,5040.000000,0.000000
515,5040.000000,80.000000
516,5040.000000,80.000000
517,5040.000000,80.000000
518,5040.000000,80.000000
519,5040.000000,0.000000
520,5040.000000,80.000000
521,5040.000000,80.000000
522,4960.000000,80.000000
523,4960.000000,80.000000
524,4960.000000,0.000000
525,4960.000000,0.000000
526,4960.000000,0.000000
527,5040.000000,80.000000
528,4960.000000,80.000000
529,4880.000000,80.000000
530,4960.000000,80.000000
531,4960.000000,80.000000
532,4960.000000,80.000000
533,4960.000000,80.000000
534,4960.000000,80.000000
535,4880.000000,80.000000
536,4880.000000,80.000000
537,4880.000000,0.000000
538,4880.000000,80.000000
539,4880.000000,80.000000
540,4880.000000,80.000000
541,4880.000000,0.000000
542,4880.000000,0.000000
543,4800.000000,80.000000
544,4800.000000,80.000000
545,4880.000000,0.000000
546,4880.000000,80.000000
547,4880.000000,80.000000
548,4880.000000,80.000000
549,4800.000000,80.000000
550,4800.000000,80.000000
551,4800.000000,80.000000
552,4800.000000,0.000000
553,4800.000000,80.000000
554,4800.000000,80.000000
555,4720.000000,80.000000
556,4800.000000,80.000000
557,4720.000000,80.000000
558,4720.000000,80.000000
559,4800.000000,0.000000
560,4800.000000,80.000000
561,4720.000000,0.000000
562,4800.000000,80.000000
563,4720.000000,80.000000
564,4800.000000,80.000000
565,4800.000000,80.000000
566,4800.000000,80.000000
567,4720.000000,80.000000
568,4720.000000,80.000000
569,4720.000000,0.000000
570,4720.000000,80.000000
571,4720.000000,80.000000
572,4720.000000,80.000000
573,4720.000000,80.000000
574,4640.000000,80.000000
575,4640.000000,80.000000
576,4640.000000,80.000000
577,4640.000000,80.000000
578,4640.000000,80.000000
579,4640.000000,80.000000
580,4640.000000,0.000000
581,4640.000000,80.000000
582,4640.000000,80.000000
583,4640.000000,80.000000
584,4640.000000,80.000000
585,4640.000000,80.000000
586,4640.000000,80.000000
587,4640.000000,80.000000
588,4640.000000,80.000000
589,4560.000000,80.000000
590,4560.000000,80.000000
591,4560.000000,80.000000
592,4560.000000,80.000000
593,4560.000000,80.000000
594,4560.000000,80.000000
595,4560.000000,80.000000
596,4480.000000,80.000000
597,4560.000000,80.000000
598,4560.000000,80.000000
599,4560.000000,80.000000
600,4560.000000,80.000000
601,4480.000000,80.000000
602,4480.000000,80.000000
603,4480.000000,0.000000
604,4480.000000,80.000000
605,4480.000000,80.000000
606,4480.000000,80.000000
607,4480.000000,80.000000
608,4480.000000,80.000000
609,4480.000000,0.000000
610,4480.000000,80.000000
611,4480.000000,80.000000
612,4480.000000,80.000000
613,4400.000000,0.000000
614,4400.000000,80.000000
615,4400.000000,80.000000
616,4400.000000,80.000000
617,4400.000000,80.000000
618,4400.000000,0.000000
619,4400.000000,0.000000
620,4400.000000,80.000000
621,4400.000000,80.000000
622,4400.000000,0.000000
623,4400.000000,80.000000
624,4400.000000,80.000000
625,4400.000000,80.000000
626,4400.000000,80.000000
627,4320.000000,80.000000
628,4320.000000,80.000000
629,4320.000000,0.000000
630,4320.000000,80.000000
631,4320.000000,80.000000
632,4320.000000,80.000000
633,4320.000000,80.000000
634,4320.000000,80.000000
635,4320.000000,80.000000
636,4320.000000,80.000000
637,4320.000000,0.000000
638,4320.000000,80.000000
639,4320.000000,0.000000
640,4240.000000,80.000000
641,4240.000000,80.000000
642,4240.000000,80.000000
643,4240.000000,80.000000
644,4240.000000,80.000000
645,4240.000000,0.000000
646,4240.000000,80.000000
647,4240.000000,80.000000
648,4240.000000,80.000000
649,4240.000000,80.000000
650,4240.000000,80.000000
651,4240.000000,0.000000
652,4240.000000,80.000000
653,4160.000000,80.000000
654,4160.000000,80.000000
655,4160.000000,80.000000
656,4240.000000,0.000000
657,4160.000000,80.000000
658,4160.000000,80.000000
659,4160.000000,80.000000
660,4160.000000,80.000000
661,4160.000000,80.000000
662,4240.000000,0.000000
663,4160.000000,80.000000
664,4160.000000,80.000000
665,4160.000000,80.000000
666,4160.000000,80.000000
667,4160.000000,80.000000
668,4160.000000,80.000000
669,4160.000000,80.000000
670,4160.000000,80.000000
671,4160.000000,80.000000
672,4080.000000,0.000000
673,4080.000000,80.000000
674,4080.000000,80.000000
675,4160.000000,80.000000
676,4080.000000,0.000000
677,4080.000000,80.000000
678,4000.000000,80.000000
679,4000.000000,80.000000
680,4000.000000,80.000000
681,4000.000000,80.000000
682,4080.000000,80.000000
683,4000.000000,80.000000
684,4080.000000,80.000000
685,4000.000000,0.000000
686,4000.000000,0.000000
687,4000.000000,0.000000
688,4000.000000,80.000000
689,4000.000000,80.000000
690,4000.000000,80.000000
691,4000.000000,80.000000
692,4000.000000,80.000000
693,3920.000000,80.000000
694,4000.000000,80.000000
695,3920.000000,80.000000
696,4000.000000,0.000000
697,4000.000000,80.000000
698,3920.000000,80.000000
699,3920.000000,0.000000
700,3920.000000,80.000000
701,3920.000000,80.000000
702,3920.000000,0.000000
703,3920.000000,80.000000
704,3920.000000,80.000000
705,3840.000000,80.000000
706,3920.000000,0.000000
707,3920.000000,80.000000
708,3920.000000,80.000000
709,3840.000000,80.000000
710,3840.000000,80.000000
711,3840.000000,80.000000
712,3840.000000,80.000000
713,3920.000000,80.000000
714,3840.000000,80.000000
715,3920.000000,0.000000
716,3840.000000,0.000000
717,3840.000000,80.000000
718,3840.000000,80.000000
719,3840.000000,0.000000
720,3840.000000,80.000000
721,3760.000000,80.000000
722,3760.000000,80.000000
723,3840.000000,0.000000
724,3760.000000,0.000000
725,3680.000000,0.000000
726,3760.000000,80.000000
727,3760.000000,80.000000
728,3760.000000,80.000000
729,3760.000000,80.000000
730,3760.000000,80.000000
731,3760.000000,80.000000
732,3760.000000,80.000000
733,3680.000000,80.000000
734,3680.000000,80.000000
735,3680.000000,80.000000
736,3680.000000,80.000000
737,3760.000000,80.000000
738,3680.000000,80.000000
739,3680.000000,80.000000
740,3680.000000,0.000000
741,3680.000000,80.000000
742,3680.000000,80.000000
743,3680.000000,80.000000
744,3600.000000,80.000000
745,3680.000000,80.000000
